bug#	Dev#	Effort	jdt	jface	core	swt	ui	debug	ltk	text	jdi	search	compare	other
68552	16	46.00	0.38	0.26	0.00	0.16	0.19	0.00	0.00	0.00	0.00	0.00	0.00	0.01
69020	16	50.67	0.70	0.01	0.12	0.00	0.00	0.00	0.15	0.01	0.00	0.00	0.00	0.00
76099	17	127.33	0.26	0.28	0.09	0.09	0.14	0.00	0.00	0.00	0.00	0.14	0.00	0.00
78450	20	52.33	0.61	0.06	0.13	0.05	0.09	0.00	0.06	0.02	0.00	0.00	0.00	0.00
80784	9	8.00	0.11	0.32	0.05	0.47	0.03	0.03	0.00	0.00	0.00	0.00	0.00	0.00
92009	2	8.00	0.34	0.33	0.03	0.27	0.02	0.00	0.02	0.00	0.00	0.00	0.00	0.00
93376	20	20.33	0.89	0.03	0.08	0.00	0.00	0.00	0.00	0.00	0.00	0.00	0.00	0.00
101453	18	34.67	0.89	0.03	0.06	0.00	0.00	0.00	0.00	0.03	0.00	0.00	0.00	0.00
101794	19	8.00	0.86	0.00	0.14	0.00	0.00	0.00	0.00	0.00	0.00	0.00	0.00	0.001