bug_id,Depends On,target_milestone,assigned_to,bug_severity,priority,creation_ts,Fixed Date,Duration,churned_loc
12481,,3.1 M5,Darin_Wright@ca.ibm.com,enhancement,P3,3/28/02 17:44,2/15/05 15:29,25317:45:24,118
20644,,3.1 M5,daniel_megert@ch.ibm.com,normal,P3,6/19/02 9:52,1/24/05 9:12,22799:20:59,80
25800,,3.1 M5,Olivier_Thomann@ca.ibm.com,minor,P3,11/6/02 15:46,1/20/05 15:00,19343:14:58,353
35866,,3.1 M5,dirk_baeumer@ch.ibm.com,normal,P3,3/31/03 8:26,12/22/04 5:30,15165:04:07,11
36365,,3.1 M5,dirk_baeumer@ch.ibm.com,normal,P3,4/10/03 13:26,12/22/04 5:59,14920:33:38,7
36914,,3.1 M5,Darin_Swanson@us.ibm.com,normal,P3,4/25/03 11:38,1/5/05 23:46,14916:08:30,66
40243,80839,3.1 M5,dirk_baeumer@ch.ibm.com,major,P3,7/16/03 13:14,2/4/05 6:57,13649:43:18,129
42777,,3.1 M5,dirk_baeumer@ch.ibm.com,normal,P3,9/9/03 8:38,12/23/04 5:37,11300:59:38,23
44150,,3.1 M5,dirk_baeumer@ch.ibm.com,normal,P3,10/3/03 15:00,12/23/04 6:05,10719:05:16,33
44285,,3.1 M5,martin_aeschlimann@ch.ibm.com,normal,P3,10/7/03 6:09,2/3/05 6:53,11640:44:48,38
45081,,3.1 M5,dirk_baeumer@ch.ibm.com,normal,P3,10/17/03 6:06,12/30/04 18:49,10572:43:52,157
58712,,3.1 M5,Darin_Wright@ca.ibm.com,normal,P3,4/15/04 14:38,2/10/05 10:16,7219:38:08,80
60297,,3.1 M5,daniel_megert@ch.ibm.com,trivial,P3,4/28/04 14:02,12/17/04 8:57,5586:55:17,5
66681,,3.1 M5,markus_keller@ch.ibm.com,minor,P3,6/11/04 10:40,1/21/05 6:55,5372:15:29,14
67327,,3.1 M5,daniel_megert@ch.ibm.com,normal,P3,6/15/04 14:28,12/20/04 9:29,4507:01:57,2
68525,,3.1 M5,markus_keller@ch.ibm.com,minor,P3,6/24/04 14:39,2/8/05 10:51,5492:12:47,2
68823,,3.1 M5,Olivier_Thomann@ca.ibm.com,critical,P3,6/28/04 17:12,1/5/05 16:40,4583:28:12,39
70625,,3.1 M5,Darin_Wright@ca.ibm.com,enhancement,P2,7/22/04 11:17,1/21/05 15:05,4395:48:34,25
70626,,3.1 M5,Darin_Wright@ca.ibm.com,enhancement,P2,7/22/04 11:18,1/21/05 15:07,4395:49:56,24
70627,,3.1 M5,Darin_Wright@ca.ibm.com,enhancement,P2,7/22/04 11:21,1/21/05 15:10,4395:49:07,27
71195,,3.1 M5,jerome_lanneluc@fr.ibm.com,normal,P3,7/30/04 21:13,1/4/05 5:51,3776:38:43,11
71363,,3.1 M5,martin_aeschlimann@ch.ibm.com,major,P3,8/4/04 6:35,1/21/05 8:50,4082:15:54,206
71546,,3.1 M5,martin_aeschlimann@ch.ibm.com,normal,P3,8/6/04 4:58,2/3/05 9:14,4348:16:51,35
71936,,3.1 M5,jared_burns@us.ibm.com,enhancement,P3,8/13/04 8:57,2/1/05 13:12,4132:15:33,12
72013,,3.1 M5,Darin_Wright@ca.ibm.com,normal,P3,8/16/04 6:48,1/6/05 8:53,3434:05:45,113
72453,,3.1 M5,martin_aeschlimann@ch.ibm.com,normal,P3,8/23/04 13:54,1/21/05 5:48,3615:54:17,49
73081,,3.1 M5,philippe_mulet@fr.ibm.com,normal,P3,9/1/04 13:52,1/5/05 8:43,3018:51:56,59
73200,,3.1 M5,Darin_Wright@ca.ibm.com,enhancement,P2,9/2/04 20:43,1/20/05 10:22,3349:39:57,570
73201,,3.1 M5,Darin_Wright@ca.ibm.com,normal,P2,9/2/04 20:56,1/31/05 14:57,3618:01:25,257
73203,,3.1 M5,Darin_Wright@ca.ibm.com,normal,P2,9/2/04 21:04,2/17/05 15:26,4026:22:08,217
73475,,3.1 M5,Darin_Wright@ca.ibm.com,enhancement,P2,9/8/04 13:17,1/10/05 12:25,2975:08:17,348
73535,,3.1 M5,jerome_lanneluc@fr.ibm.com,normal,P3,9/9/04 8:35,1/13/05 7:58,3023:23:34,25
73853,,3.1 M5,eclipse@skyluc.org,enhancement,P4,9/14/04 6:03,2/15/05 19:12,3709:09:30,2
73975,,3.1 M5,martin_aeschlimann@ch.ibm.com,normal,P3,9/15/04 7:53,1/21/05 12:56,3077:03:22,307
74160,,3.1 M5,martin_aeschlimann@ch.ibm.com,normal,P3,9/17/04 6:25,2/3/05 9:32,3339:07:59,12
74394,,3.1 M5,Olivier_Thomann@ca.ibm.com,enhancement,P3,9/20/04 23:35,2/11/05 12:52,3445:17:29,1006
75599,,3.1 M5,jared_burns@us.ibm.com,normal,P3,10/4/04 16:38,2/15/05 11:42,3211:04:14,29
75642,82558,3.1 M5,frederic_fusier@fr.ibm.com,normal,P3,10/5/04 10:19,1/17/05 17:57,2503:38:16,6073
75891,,3.1 M5,eclipse@skyluc.org,enhancement,P3,10/8/04 9:09,1/25/05 14:08,2620:59:40,16
76087,,3.1 M5,daniel_megert@ch.ibm.com,normal,P2,10/12/04 11:42,1/20/05 6:02,2394:20:37,2
76158,,3.1 M5,dirk_baeumer@ch.ibm.com,normal,P3,10/13/04 9:12,2/7/05 12:16,2811:04:53,61
76272,,3.1 M5,jared_burns@us.ibm.com,enhancement,P2,10/14/04 11:25,1/14/05 16:53,2213:28:45,1119
76520,,3.1 M5,jared_burns@us.ibm.com,enhancement,P3,10/18/04 20:53,11/5/04 18:14,429:21:38,33
76534,,3.1 M5,jared_burns@us.ibm.com,normal,P3,10/18/04 22:57,2/1/05 13:16,2534:19:55,5
76580,,3.1 M5,dirk_baeumer@ch.ibm.com,normal,P3,10/19/04 13:22,2/7/05 13:03,2663:41:46,12
76761,,3.1 M5,jerome_lanneluc@fr.ibm.com,normal,P3,10/21/04 13:31,1/6/05 10:37,1845:06:18,21
76773,,3.1 M5,Olivier_Thomann@ca.ibm.com,normal,P3,10/21/04 15:16,2/4/05 23:29,2552:13:19,15
77283,,3.1 M5,jerome_lanneluc@fr.ibm.com,minor,P3,10/29/04 9:06,1/12/05 7:50,1798:44:48,135
77502,,3.1 M5,markus_keller@ch.ibm.com,minor,P3,11/2/04 13:15,2/1/05 10:11,2180:56:51,21
77582,,3.1 M5,tobias_widmer@ch.ibm.com,normal,P3,11/3/04 5:48,2/8/05 12:26,2334:38:09,44
77589,79698,3.1 M5,dirk_baeumer@ch.ibm.com,normal,P3,11/3/04 6:21,1/5/05 9:33,1515:12:20,56
77636,,3.1 M5,martin_aeschlimann@ch.ibm.com,enhancement,P3,11/3/04 9:56,2/14/05 14:36,2476:40:14,72
77757,,3.1 M5,Darin_Wright@ca.ibm.com,normal,P2,11/3/04 15:23,1/21/05 15:45,1896:22:55,9
77888,,3.1 M5,martin_aeschlimann@ch.ibm.com,normal,P3,11/4/04 14:11,1/24/05 10:45,1940:34:25,55
77894,,3.1 M5,jerome_lanneluc@fr.ibm.com,normal,P3,11/4/04 15:25,1/20/05 11:11,1843:46:50,1682
77933,,3.1 M5,martin_aeschlimann@ch.ibm.com,normal,P3,11/5/04 6:40,1/11/05 12:29,1613:49:08,7
78151,,3.1 M5,david_audel@fr.ibm.com,normal,P3,11/9/04 5:07,1/19/05 10:46,1709:39:44,356
78241,,3.1 M5,markus_keller@ch.ibm.com,normal,P3,11/9/04 17:51,1/31/05 5:47,1979:56:46,711
78520,,3.1 M5,jerome_lanneluc@fr.ibm.com,major,P3,11/12/04 11:33,1/5/05 13:59,1298:26:16,769
78534,,3.1 M5,krbarnes@ca.ibm.com,normal,P3,11/12/04 13:13,1/26/05 17:03,1803:50:49,91
78698,,3.1 M5,Olivier_Thomann@ca.ibm.com,minor,P3,11/16/04 4:25,1/5/05 11:12,1206:47:16,153
78709,,3.1 M5,tobias_widmer@ch.ibm.com,normal,P3,11/16/04 5:40,12/6/04 6:02,480:22:00,54
78906,,3.1 M5,philippe_mulet@fr.ibm.com,normal,P3,11/17/04 18:48,2/12/05 9:19,2078:31:08,29
78934,,3.1 M5,Olivier_Thomann@ca.ibm.com,normal,P3,11/18/04 6:33,2/1/05 14:27,1807:54:51,446
79144,,3.1 M5,philippe_mulet@fr.ibm.com,normal,P3,11/21/04 8:20,1/15/05 9:27,1321:07:30,107
79174,,3.1 M5,martin_aeschlimann@ch.ibm.com,normal,P3,11/22/04 7:42,2/10/05 13:51,1926:09:27,60
79334,,3.1 M5,jerome_lanneluc@fr.ibm.com,normal,P3,11/23/04 14:53,1/6/05 9:36,1050:43:28,86
79640,,3.1 M5,martin_aeschlimann@ch.ibm.com,normal,P3,11/28/04 15:25,2/15/05 12:16,1892:51:04,128
79766,,3.1 M5,jerome_lanneluc@fr.ibm.com,normal,P3,11/30/04 7:30,1/3/05 6:51,815:21:11,22
79883,,3.1 M5,frederic_fusier@fr.ibm.com,normal,P3,12/1/04 11:12,1/4/05 5:59,810:47:15,292
80011,,3.1 M5,tobias_widmer@ch.ibm.com,normal,P3,12/2/04 9:51,1/3/05 6:55,765:04:01,65
80098,,3.1 M5,jerome_lanneluc@fr.ibm.com,enhancement,P3,12/3/04 8:41,1/13/05 5:11,980:30:53,136
80223,,3.1 M5,frederic_fusier@fr.ibm.com,normal,P3,12/5/04 15:13,12/30/04 12:48,597:35:00,45
80257,,3.1 M5,frederic_fusier@fr.ibm.com,minor,P3,12/6/04 8:30,1/26/05 18:33,1234:03:46,3175
80326,,3.1 M5,Darin_Wright@ca.ibm.com,normal,P3,12/6/04 17:29,2/10/05 10:07,1576:38:24,71
80333,,3.1 M5,Darin_Wright@ca.ibm.com,normal,P3,12/6/04 22:28,1/5/05 15:44,713:16:10,351
80338,,3.1 M5,jerome_lanneluc@fr.ibm.com,major,P3,12/7/04 1:48,1/4/05 17:06,687:18:34,69
80345,,3.1 M5,markus_keller@ch.ibm.com,normal,P3,12/7/04 4:24,1/19/05 19:32,1047:08:12,9
80626,,3.1 M5,kent_johnson@ca.ibm.com,normal,P3,12/9/04 14:20,2/1/05 11:52,1293:32:26,1134
80630,,3.1 M5,philippe_mulet@fr.ibm.com,normal,P3,12/9/04 14:35,2/8/05 17:25,1466:50:00,113
80736,,3.1 M5,kent_johnson@ca.ibm.com,normal,P3,12/10/04 17:16,1/13/05 13:29,812:13:00,157
80743,,3.1 M5,kent_johnson@ca.ibm.com,normal,P3,12/10/04 19:05,1/12/05 12:23,785:18:07,32
80745,,3.1 M5,kent_johnson@ca.ibm.com,normal,P3,12/10/04 19:27,1/13/05 15:54,812:27:51,169
80800,,3.1 M5,jerome_lanneluc@fr.ibm.com,enhancement,P3,12/13/04 6:58,1/21/05 7:03,936:05:14,1945
80839,,3.1 M5,martin_aeschlimann@ch.ibm.com,enhancement,P3,12/13/04 12:47,2/3/05 12:07,1247:20:47,173
80890,,3.1 M5,frederic_fusier@fr.ibm.com,minor,P3,12/13/04 18:58,12/24/04 6:26,251:28:12,402
80909,,3.1 M5,tobias_widmer@ch.ibm.com,normal,P3,12/14/04 3:58,2/9/05 4:41,1368:43:09,18
81042,,3.1 M5,Darin_Swanson@us.ibm.com,enhancement,P3,12/14/04 19:46,1/5/05 23:30,531:44:50,10
81059,,3.1 M5,dirk_baeumer@ch.ibm.com,major,P3,12/15/04 3:56,2/9/05 6:12,1346:16:56,8
81063,,3.1 M5,jerome_lanneluc@fr.ibm.com,trivial,P3,12/15/04 4:32,1/5/05 7:02,506:30:14,4
81083,74756,3.1 M5,daniel_megert@ch.ibm.com,normal,P3,12/15/04 5:41,1/14/05 9:21,723:40:51,58
81084,,3.1 M5,frederic_fusier@fr.ibm.com,normal,P3,12/15/04 5:45,12/25/04 8:17,242:32:56,14
81089,,3.1 M5,martin_aeschlimann@ch.ibm.com,normal,P3,12/15/04 5:54,1/27/05 5:19,1031:25:06,4
81098,,3.1 M5,martin_aeschlimann@ch.ibm.com,normal,P3,12/15/04 6:12,1/27/05 4:54,1030:42:21,15
81100,,3.1 M5,martin_aeschlimann@ch.ibm.com,normal,P3,12/15/04 6:14,2/3/05 10:32,1204:18:39,44
81128,,3.1 M5,daniel_megert@ch.ibm.com,normal,P3,12/15/04 8:34,1/6/05 12:52,532:18:53,180
81135,,3.1 M5,martin_aeschlimann@ch.ibm.com,normal,P3,12/15/04 9:00,1/4/05 12:21,483:21:25,140
81138,,3.1 M5,tobias_widmer@ch.ibm.com,normal,P3,12/15/04 9:07,1/5/05 12:03,506:56:19,9
81146,,3.1 M5,tobias_widmer@ch.ibm.com,normal,P3,12/15/04 9:18,1/5/05 12:34,507:16:32,2
81173,,3.1 M5,markus_keller@ch.ibm.com,normal,P3,12/15/04 10:38,2/8/05 3:49,1313:11:42,7
81181,,3.1 M5,markus_keller@ch.ibm.com,normal,P3,12/15/04 10:51,1/26/05 7:19,1004:28:46,102
81190,,3.1 M5,frederic_fusier@fr.ibm.com,normal,P3,12/15/04 11:00,1/24/05 11:01,960:01:48,732
81196,81190,3.1 M5,martin_aeschlimann@ch.ibm.com,normal,P3,12/15/04 11:06,2/4/05 8:28,1221:22:28,387
81244,,3.1 M5,Olivier_Thomann@ca.ibm.com,normal,P3,12/15/04 12:09,2/10/05 17:57,1373:48:52,102
81250,,3.1 M5,martin_aeschlimann@ch.ibm.com,normal,P3,12/15/04 12:29,2/3/05 17:07,1204:38:00,312
81266,,3.1 M5,dirk_baeumer@ch.ibm.com,normal,P3,12/15/04 13:36,2/7/05 13:31,1295:55:12,7
81332,,3.1 M5,kent_johnson@ca.ibm.com,normal,P3,12/15/04 16:50,2/1/05 11:51,1147:01:04,1075
81376,,3.1 M5,frederic_fusier@fr.ibm.com,normal,P3,12/16/04 5:34,12/24/04 6:25,192:51:14,30
81417,,3.1 M5,jerome_lanneluc@fr.ibm.com,normal,P3,12/16/04 11:26,1/3/05 5:39,426:13:29,21
81421,,3.1 M5,dirk_baeumer@ch.ibm.com,normal,P3,12/16/04 11:46,2/1/05 13:51,1130:05:29,43
81426,,3.1 M5,dirk_baeumer@ch.ibm.com,minor,P3,12/16/04 11:57,2/11/05 5:17,1361:20:26,4
81428,,3.1 M5,Darin_Wright@ca.ibm.com,normal,P3,12/16/04 12:04,2/7/05 12:19,1272:15:33,17
81513,,3.1 M5,frederic_fusier@fr.ibm.com,normal,P3,12/17/04 9:02,12/20/04 6:16,69:14:23,4
81519,,3.1 M5,eclipse@skyluc.org,normal,P3,12/17/04 10:09,1/5/05 15:42,461:33:41,9
81535,,3.1 M5,kent_johnson@ca.ibm.com,normal,P3,12/17/04 11:55,1/7/05 12:16,504:21:28,33
81556,,3.1 M5,frederic_fusier@fr.ibm.com,normal,P3,12/17/04 14:38,1/4/05 10:16,427:38:55,1227
81563,,3.1 M5,eclipse@skyluc.org,normal,P3,12/17/04 15:50,1/5/05 14:37,454:47:20,12
81568,,3.1 M5,kent_johnson@ca.ibm.com,normal,P3,12/17/04 17:24,1/5/05 16:37,455:13:02,240
81571,,3.1 M5,kent_johnson@ca.ibm.com,normal,P3,12/17/04 17:49,1/6/05 11:06,473:17:48,260
81589,,3.1 M5,martin_aeschlimann@ch.ibm.com,normal,P3,12/18/04 8:28,1/5/05 6:20,429:52:16,49
81612,,3.1 M5,tobias_widmer@ch.ibm.com,normal,P2,12/19/04 12:08,1/3/05 5:44,353:36:14,61
81618,,3.1 M5,kent_johnson@ca.ibm.com,normal,P3,12/19/04 16:19,12/21/04 16:02,47:43:45,119
81658,,3.1 M5,Darin_Wright@ca.ibm.com,major,P2,12/20/04 12:30,1/17/05 10:17,669:47:20,21
81706,,3.1 M5,kent_johnson@ca.ibm.com,normal,P3,12/20/04 22:46,1/12/05 15:02,544:16:39,66
81712,,3.1 M5,markus_keller@ch.ibm.com,normal,P3,12/21/04 1:35,2/8/05 11:36,1186:01:22,7
81719,,3.1 M5,philippe_mulet@fr.ibm.com,major,P3,12/21/04 4:46,1/11/05 18:23,517:37:37,38
81721,,3.1 M5,philippe_mulet@fr.ibm.com,normal,P3,12/21/04 5:07,1/13/05 18:19,565:12:51,731
81724,,3.1 M5,philippe_mulet@fr.ibm.com,major,P3,12/21/04 6:04,1/1/05 9:46,267:42:05,2
81727,,3.1 M5,kent_johnson@ca.ibm.com,normal,P3,12/21/04 8:16,1/4/05 15:37,343:21:42,37
81740,,3.1 M5,dirk_baeumer@ch.ibm.com,normal,P3,12/21/04 11:56,12/21/04 11:57,0:01:49,4
81762,,3.1 M5,jerome_lanneluc@fr.ibm.com,normal,P3,12/21/04 19:11,1/4/05 11:31,328:20:21,39
81824,,3.1 M5,kent_johnson@ca.ibm.com,normal,P3,12/22/04 16:19,1/5/05 16:37,336:18:56,240
81825,,3.1 M5,philippe_mulet@fr.ibm.com,normal,P3,12/22/04 16:20,1/4/05 9:05,304:45:22,72
81830,,3.1 M5,daniel_megert@ch.ibm.com,major,P2,12/22/04 17:39,1/14/05 8:04,542:25:59,112
81870,,3.1 M5,eclipse@skyluc.org,enhancement,P3,12/23/04 13:24,1/5/05 14:34,313:10:49,50
81878,,3.1 M5,dirk_baeumer@ch.ibm.com,major,P3,12/23/04 15:39,1/5/05 9:03,305:24:51,9
81923,,3.1 M5,kent_johnson@ca.ibm.com,normal,P3,12/27/04 5:20,1/10/05 18:30,349:10:48,102
81945,,3.1 M5,philippe_mulet@fr.ibm.com,normal,P3,12/27/04 17:53,1/11/05 17:56,360:03:21,25
81971,,3.1 M5,philippe_mulet@fr.ibm.com,normal,P3,12/28/04 14:53,1/4/05 5:03,158:10:58,28
81980,,3.1 M5,martin_aeschlimann@ch.ibm.com,normal,P3,12/29/04 1:18,2/7/05 10:15,968:57:20,246
81983,,3.1 M5,eclipse@tom.eicher.name,major,P2,12/29/04 4:24,2/11/05 10:31,1062:07:24,112
82004,,3.1 M5,jerome_lanneluc@fr.ibm.com,normal,P3,12/29/04 16:13,1/5/05 4:37,156:24:26,33
82005,,3.1 M5,dirk_baeumer@ch.ibm.com,normal,P3,12/29/04 16:54,2/11/05 5:01,1044:07:44,1
82006,,3.1 M5,martin_aeschlimann@ch.ibm.com,normal,P3,12/29/04 17:14,1/3/05 6:52,109:38:45,45
82053,,3.1 M5,philippe_mulet@fr.ibm.com,critical,P3,12/31/04 15:43,1/3/05 12:59,69:16:12,21
82061,,3.1 M5,tobias_widmer@ch.ibm.com,normal,P3,1/1/05 14:44,1/3/05 11:38,44:54:15,22
82083,,3.1 M5,martin_aeschlimann@ch.ibm.com,normal,P3,1/3/05 5:51,1/3/05 8:42,2:51:04,2
82088,,3.1 M5,frederic_fusier@fr.ibm.com,major,P3,1/3/05 8:47,1/3/05 12:44,3:57:13,84
82089,,3.1 M5,martin_aeschlimann@ch.ibm.com,trivial,P3,1/3/05 8:50,1/3/05 12:01,3:11:06,2
82102,,3.1 M5,kent_johnson@ca.ibm.com,normal,P3,1/3/05 14:25,1/6/05 15:58,73:33:45,149
82123,,3.1 M5,tobias_widmer@ch.ibm.com,major,P3,1/4/05 5:37,1/5/05 4:57,23:20:12,13
82136,,3.1 M5,Olivier_Thomann@ca.ibm.com,normal,P3,1/4/05 9:50,1/4/05 16:16,6:26:27,80
82137,,3.1 M5,david_audel@fr.ibm.com,normal,P3,1/4/05 10:12,1/7/05 7:06,68:54:15,153
82140,,3.1 M5,Olivier_Thomann@ca.ibm.com,normal,P3,1/4/05 10:24,1/4/05 21:53,11:29:07,308
82141,,3.1 M5,Olivier_Thomann@ca.ibm.com,normal,P3,1/4/05 10:47,1/4/05 22:54,12:07:27,95
82151,,3.1 M5,krbarnes@ca.ibm.com,normal,P3,1/4/05 11:56,1/11/05 11:32,167:36:29,1
82159,,3.1 M5,philippe_mulet@fr.ibm.com,minor,P3,1/4/05 12:38,1/7/05 12:58,72:20:50,271
82167,,3.1 M5,eclipse@tom.eicher.name,minor,P3,1/4/05 13:42,1/10/05 12:07,142:25:17,10
82173,,3.1 M5,eclipse@tom.eicher.name,normal,P3,1/4/05 14:32,1/11/05 5:33,159:01:58,137
82187,,3.1 M5,philippe_mulet@fr.ibm.com,normal,P3,1/4/05 16:12,1/8/05 9:37,89:25:39,63
82198,,3.1 M5,Darin_Wright@ca.ibm.com,enhancement,P3,1/4/05 18:23,1/10/05 11:36,137:13:11,7
82199,,3.1 M5,Darin_Wright@ca.ibm.com,normal,P3,1/4/05 18:24,1/24/05 13:47,475:23:37,60
82204,,3.1 M5,daniel_megert@ch.ibm.com,normal,P3,1/4/05 19:45,1/14/05 5:54,226:09:38,12
82215,,3.1 M5,martin_aeschlimann@ch.ibm.com,normal,P3,1/5/05 4:30,1/10/05 13:05,128:35:44,417
82216,,3.1 M5,Olivier_Thomann@ca.ibm.com,normal,P3,1/5/05 4:33,1/5/05 14:16,9:43:44,72
82217,,3.1 M5,philippe_mulet@fr.ibm.com,normal,P3,1/5/05 4:45,1/6/05 7:39,26:54:40,59
82219,,3.1 M5,dirk_baeumer@ch.ibm.com,normal,P3,1/5/05 4:58,1/7/05 9:23,52:25:06,5
82232,,3.1 M5,Darin_Wright@ca.ibm.com,trivial,P3,1/5/05 7:34,1/5/05 8:30,0:56:39,9
82242,,3.1 M5,dirk_baeumer@ch.ibm.com,normal,P3,1/5/05 9:59,1/23/05 12:06,434:07:59,133
82244,,3.1 M5,eclipse@skyluc.org,normal,P3,1/5/05 10:31,1/5/05 13:20,2:49:48,51
82250,,3.1 M5,kent_johnson@ca.ibm.com,normal,P3,1/5/05 11:08,1/10/05 16:43,125:35:51,54
82253,,3.1 M5,Olivier_Thomann@ca.ibm.com,normal,P3,1/5/05 11:32,1/5/05 12:03,0:31:35,9
82260,,3.1 M5,eclipse@tom.eicher.name,normal,P3,1/5/05 12:21,2/7/05 8:58,788:37:25,155
82270,,3.1 M5,eclipse@skyluc.org,normal,P3,1/5/05 13:42,1/5/05 15:45,2:03:48,10
82278,,3.1 M5,Darin_Wright@ca.ibm.com,enhancement,P2,1/5/05 14:58,1/17/05 9:49,282:51:56,25
82281,,3.1 M5,Darin_Wright@ca.ibm.com,normal,P3,1/5/05 15:40,1/6/05 8:49,17:09:02,22
82284,,3.1 M5,Darin_Swanson@us.ibm.com,normal,P3,1/5/05 16:11,1/5/05 23:26,7:15:47,8
82311,,3.1 M5,martin_aeschlimann@ch.ibm.com,enhancement,P3,1/6/05 5:18,1/6/05 7:18,2:00:17,59
82315,,3.1 M5,daniel_megert@ch.ibm.com,normal,P3,1/6/05 7:15,1/7/05 5:42,22:27:38,13
82330,,3.1 M5,dirk_baeumer@ch.ibm.com,normal,P3,1/6/05 11:09,1/7/05 11:10,24:01:24,48
82342,,3.1 M5,martin_aeschlimann@ch.ibm.com,normal,P3,1/6/05 12:42,1/7/05 8:52,20:10:53,3
82345,,3.1 M5,Darin_Swanson@us.ibm.com,normal,P4,1/6/05 14:02,1/10/05 19:30,101:28:32,13
82356,,3.1 M5,dirk_baeumer@ch.ibm.com,normal,P3,1/6/05 18:20,1/13/05 14:00,163:40:14,4
82366,,3.1 M5,Darin_Swanson@us.ibm.com,normal,P3,1/7/05 3:21,1/10/05 16:04,84:43:33,49
82382,,3.1 M5,jerome_lanneluc@fr.ibm.com,normal,P3,1/7/05 10:21,1/11/05 6:24,92:03:37,32
82394,,3.1 M5,eclipse@tom.eicher.name,normal,P1,1/7/05 13:39,1/10/05 4:00,62:21:58,64
82397,,3.1 M5,krbarnes@ca.ibm.com,normal,P3,1/7/05 14:56,1/18/05 15:02,264:06:52,7
82417,,3.1 M5,martin_aeschlimann@ch.ibm.com,normal,P3,1/8/05 5:15,1/10/05 5:35,48:20:19,3
82432,,3.1 M5,philippe_mulet@fr.ibm.com,critical,P3,1/8/05 19:17,1/10/05 7:20,36:03:33,382
82439,,3.1 M5,philippe_mulet@fr.ibm.com,normal,P3,1/9/05 5:47,1/14/05 9:08,123:21:43,107
82461,,3.1 M5,martin_aeschlimann@ch.ibm.com,normal,P3,1/10/05 6:49,2/11/05 12:35,773:46:09,32
82475,,3.1 M5,dirk_baeumer@ch.ibm.com,normal,P3,1/10/05 10:01,1/22/05 13:27,291:26:47,106
82485,,3.1 M5,Darin_Wright@ca.ibm.com,normal,P3,1/10/05 11:41,1/17/05 15:04,171:23:54,322
82504,,3.1 M5,philippe_mulet@fr.ibm.com,normal,P3,1/10/05 15:28,1/11/05 7:39,16:11:52,166
82507,,3.1 M5,dirk_baeumer@ch.ibm.com,enhancement,P3,1/10/05 15:33,1/26/05 9:15,377:42:20,97
82509,,3.1 M5,Darin_Swanson@us.ibm.com,normal,P3,1/10/05 16:03,1/14/05 19:27,99:24:13,137
82510,,3.1 M5,Olivier_Thomann@ca.ibm.com,normal,P3,1/10/05 16:20,1/12/05 15:37,47:17:42,200
82514,,3.1 M5,frederic_fusier@fr.ibm.com,normal,P3,1/10/05 16:49,1/11/05 7:03,14:14:31,354
82536,82475,3.1 M5,martin_aeschlimann@ch.ibm.com,normal,P3,1/11/05 5:00,1/23/05 6:31,289:31:07,20
82542,,3.1 M5,jerome_lanneluc@fr.ibm.com,normal,P3,1/11/05 6:33,1/11/05 13:21,6:48:09,129
82547,,3.1 M5,philippe_mulet@fr.ibm.com,normal,P3,1/11/05 7:06,1/24/05 18:08,323:02:31,27
82558,,3.1 M5,david_audel@fr.ibm.com,major,P3,1/11/05 9:38,1/11/05 12:19,2:41:13,29
82579,,3.1 M5,eclipse@skyluc.org,enhancement,P3,1/11/05 12:16,1/18/05 12:26,168:10:36,70
82581,,3.1 M5,eclipse@tom.eicher.name,minor,P3,1/11/05 12:27,2/7/05 9:12,644:45:27,3
82590,,3.1 M5,philippe_mulet@fr.ibm.com,normal,P3,1/11/05 13:20,1/14/05 6:58,65:38:08,731
82616,,3.1 M5,Olivier_Thomann@ca.ibm.com,normal,P3,1/11/05 17:43,1/12/05 10:21,16:38:47,536
82647,,3.1 M5,philippe_mulet@fr.ibm.com,normal,P3,1/12/05 1:35,2/2/05 15:41,518:06:29,118
82655,,3.1 M5,martin_aeschlimann@ch.ibm.com,major,P3,1/12/05 6:46,1/12/05 7:26,0:40:24,57
82670,,3.1 M5,Olivier_Thomann@ca.ibm.com,normal,P3,1/12/05 10:21,1/12/05 12:57,2:36:21,49
82671,,3.1 M5,philippe_mulet@fr.ibm.com,normal,P3,1/12/05 10:28,1/27/05 8:53,358:25:02,75
82694,,3.1 M5,martin_aeschlimann@ch.ibm.com,major,P3,1/12/05 13:34,1/13/05 4:49,15:15:37,58
82724,,3.1 M5,markus_keller@ch.ibm.com,major,P3,1/12/05 18:31,1/25/05 13:38,307:07:10,209
82740,,3.1 M5,david_audel@fr.ibm.com,normal,P3,1/13/05 5:29,1/13/05 7:04,1:35:33,36
82754,,3.1 M5,kent_johnson@ca.ibm.com,normal,P3,1/13/05 10:48,1/13/05 16:14,5:26:07,5
82783,,3.1 M5,martin_aeschlimann@ch.ibm.com,normal,P3,1/13/05 15:47,1/14/05 6:44,14:57:44,30
82789,,3.1 M5,Darin_Wright@ca.ibm.com,normal,P3,1/13/05 16:26,1/17/05 10:06,89:40:06,4
82844,,3.1 M5,philippe_mulet@fr.ibm.com,normal,P3,1/14/05 10:09,1/14/05 16:34,6:25:01,69
82859,,3.1 M5,Olivier_Thomann@ca.ibm.com,normal,P3,1/14/05 13:04,1/20/05 13:38,144:34:33,28
82950,,3.1 M5,tobias_widmer@ch.ibm.com,normal,P3,1/17/05 4:54,2/2/05 10:54,390:00:25,39
82985,,3.1 M5,Olivier_Thomann@ca.ibm.com,normal,P3,1/17/05 11:37,1/17/05 16:19,4:42:23,282
82987,,3.1 M5,eclipse@tom.eicher.name,major,P2,1/17/05 11:52,2/9/05 8:32,548:40:27,21
82992,,3.1 M5,tobias_widmer@ch.ibm.com,normal,P3,1/17/05 12:27,1/19/05 6:40,42:13:08,35
83011,,3.1 M5,Olivier_Thomann@ca.ibm.com,normal,P3,1/17/05 14:26,1/17/05 15:18,0:52:22,215
83013,,3.1 M5,Olivier_Thomann@ca.ibm.com,normal,P3,1/17/05 14:45,1/17/05 17:19,2:34:01,81
83032,,3.1 M5,Olivier_Thomann@ca.ibm.com,critical,P3,1/17/05 16:43,1/17/05 22:27,5:44:45,6
83041,,3.1 M5,dirk_baeumer@ch.ibm.com,normal,P3,1/17/05 17:45,1/21/05 10:55,89:10:42,192
83053,,3.1 M5,Darin_Wright@ca.ibm.com,normal,P3,1/17/05 20:07,1/20/05 10:55,62:48:41,38
83054,,3.1 M5,Darin_Wright@ca.ibm.com,normal,P3,1/17/05 21:45,1/31/05 14:33,328:48:31,4
83078,,3.1 M5,Olivier_Thomann@ca.ibm.com,normal,P3,1/18/05 6:16,1/20/05 16:03,57:47:26,13
83096,,3.1 M5,kent_johnson@ca.ibm.com,normal,P3,1/18/05 9:51,1/18/05 16:18,6:27:58,61
83098,,3.1 M5,Olivier_Thomann@ca.ibm.com,normal,P3,1/18/05 10:12,1/18/05 12:08,1:56:14,70
83127,,3.1 M5,frederic_fusier@fr.ibm.com,normal,P3,1/18/05 14:11,1/26/05 18:34,196:23:01,3175
83161,,3.1 M5,kent_johnson@ca.ibm.com,normal,P3,1/19/05 4:03,1/19/05 16:12,12:09:56,10
83162,,3.1 M5,kent_johnson@ca.ibm.com,normal,P3,1/19/05 4:17,2/1/05 11:53,319:36:01,1075
83194,,3.1 M5,Darin_Wright@ca.ibm.com,normal,P3,1/19/05 10:38,1/20/05 10:53,24:15:19,3
83201,,3.1 M5,eclipse@skyluc.org,normal,P2,1/19/05 10:54,2/15/05 19:19,656:25:10,468
83210,,3.1 M5,jerome_lanneluc@fr.ibm.com,normal,P3,1/19/05 12:28,1/21/05 11:01,46:33:45,53
83218,,3.1 M5,kent_johnson@ca.ibm.com,normal,P3,1/19/05 13:31,2/4/05 16:17,386:46:17,120
83219,,3.1 M5,Olivier_Thomann@ca.ibm.com,normal,P3,1/19/05 13:33,1/27/05 17:01,195:28:06,34
83225,,3.1 M5,philippe_mulet@fr.ibm.com,normal,P3,1/19/05 13:46,1/27/05 5:49,184:03:09,360
83236,,3.1 M5,david_audel@fr.ibm.com,normal,P3,1/19/05 15:22,1/27/05 10:34,187:12:48,87
83297,,3.1 M5,Olivier_Thomann@ca.ibm.com,normal,P3,1/20/05 8:26,1/20/05 12:18,3:52:03,106
83300,,3.1 M5,jerome_lanneluc@fr.ibm.com,normal,P3,1/20/05 8:35,1/24/05 11:52,99:17:27,54
83304,,3.1 M5,frederic_fusier@fr.ibm.com,major,P3,1/20/05 8:57,1/21/05 5:00,20:03:28,250
83362,,3.1 M5,martin_aeschlimann@ch.ibm.com,normal,P3,1/20/05 20:35,1/21/05 4:33,7:58:51,99
83376,,3.1 M5,kent_johnson@ca.ibm.com,minor,P3,1/21/05 4:38,2/1/05 14:41,274:03:26,24
83379,,3.1 M5,kent_johnson@ca.ibm.com,trivial,P3,1/21/05 6:21,2/7/05 15:18,416:57:56,25
83383,,3.1 M5,Olivier_Thomann@ca.ibm.com,normal,P3,1/21/05 6:39,2/4/05 22:48,352:09:02,332
83397,,3.1 M5,tobias_widmer@ch.ibm.com,normal,P3,1/21/05 9:39,1/31/05 6:09,236:30:01,204
83398,,3.1 M5,philippe_mulet@fr.ibm.com,normal,P3,1/21/05 9:42,1/27/05 17:07,151:25:16,181
83410,,3.1 M5,Darin_Swanson@us.ibm.com,normal,P3,1/21/05 11:28,1/22/05 22:25,34:57:42,12
83419,,3.1 M5,Darin_Swanson@us.ibm.com,normal,P3,1/21/05 11:53,1/24/05 17:47,77:54:31,4
83440,,3.1 M5,dirk_baeumer@ch.ibm.com,normal,P3,1/21/05 14:36,1/23/05 12:58,46:22:12,7
83476,,3.1 M5,martin_aeschlimann@ch.ibm.com,normal,P3,1/21/05 20:58,1/24/05 4:28,55:30:48,14
83489,,3.1 M5,david_audel@fr.ibm.com,normal,P3,1/22/05 17:33,1/25/05 5:56,60:23:38,21
83499,,3.1 M5,jerome_lanneluc@fr.ibm.com,major,P3,1/23/05 8:32,2/4/05 9:13,288:41:15,359
83500,,3.1 M5,jerome_lanneluc@fr.ibm.com,normal,P3,1/23/05 8:40,3/2/05 9:08,912:28:34,243
83507,,3.1 M5,eclipse@skyluc.org,normal,P3,1/23/05 12:14,2/15/05 19:25,559:11:47,91
83523,,3.1 M5,tobias_widmer@ch.ibm.com,normal,P2,1/24/05 5:03,1/28/05 6:09,97:06:29,29
83536,,3.1 M5,Olivier_Thomann@ca.ibm.com,major,P3,1/24/05 10:02,1/24/05 16:13,6:11:36,4
83541,,3.1 M5,eclipse@skyluc.org,normal,P3,1/24/05 10:42,1/31/05 15:05,172:23:28,95
83558,,3.1 M5,Darin_Wright@ca.ibm.com,enhancement,P3,1/24/05 13:57,1/31/05 14:44,168:47:17,71
83593,,3.1 M5,jerome_lanneluc@fr.ibm.com,normal,P3,1/25/05 4:47,1/27/05 6:58,50:11:10,152
83599,,3.1 M5,jerome_lanneluc@fr.ibm.com,major,P3,1/25/05 6:42,1/26/05 7:26,24:44:07,158
83600,,3.1 M5,david_audel@fr.ibm.com,normal,P3,1/25/05 6:56,2/9/05 9:46,362:50:35,31
83611,,3.1 M5,kent_johnson@ca.ibm.com,critical,P3,1/25/05 9:27,2/3/05 11:42,218:15:00,40
83615,,3.1 M5,philippe_mulet@fr.ibm.com,normal,P3,1/25/05 10:06,2/7/05 10:27,312:21:49,1038
83646,,3.1 M5,jerome_lanneluc@fr.ibm.com,normal,P2,1/25/05 14:42,1/28/05 6:42,64:00:23,49
83648,,3.1 M5,Olivier_Thomann@ca.ibm.com,minor,P3,1/25/05 14:45,2/7/05 21:13,318:28:19,149
83684,,3.1 M5,Olivier_Thomann@ca.ibm.com,normal,P3,1/25/05 23:20,1/26/05 10:41,11:21:22,35
83713,,3.1 M5,frederic_fusier@fr.ibm.com,normal,P3,1/26/05 10:06,1/26/05 13:32,3:26:26,344
83729,,3.1 M5,dirk_baeumer@ch.ibm.com,minor,P3,1/26/05 12:28,1/27/05 13:05,24:37:14,15
83745,,3.1 M5,Darin_Wright@ca.ibm.com,normal,P2,1/26/05 13:53,2/7/05 11:26,285:33:13,20
83779,,3.1 M5,Darin_Wright@ca.ibm.com,normal,P3,1/26/05 17:50,1/26/05 19:50,2:00:24,13
83817,,3.1 M5,Olivier_Thomann@ca.ibm.com,normal,P3,1/27/05 6:32,1/28/05 13:34,31:02:58,78
83822,,3.1 M5,jerome_lanneluc@fr.ibm.com,normal,P3,1/27/05 8:09,1/27/05 10:12,2:03:58,44
83825,,3.1 M5,Darin_Wright@ca.ibm.com,critical,P2,1/27/05 8:34,1/31/05 12:55,100:21:25,9
83847,,3.1 M5,philippe_mulet@fr.ibm.com,normal,P3,1/27/05 12:42,1/27/05 15:49,3:07:06,28
83860,,3.1 M5,Olivier_Thomann@ca.ibm.com,critical,P3,1/27/05 14:23,1/27/05 16:53,2:30:49,24
83901,,3.1 M5,kent_johnson@ca.ibm.com,major,P3,1/27/05 20:51,2/11/05 13:47,352:56:45,763
83902,83901,3.1 M5,kent_johnson@ca.ibm.com,critical,P3,1/27/05 21:39,2/11/05 13:52,352:13:24,763
83939,,3.1 M5,philippe_mulet@fr.ibm.com,major,P3,1/28/05 10:52,1/28/05 18:59,8:07:51,79
83952,,3.1 M5,markus_keller@ch.ibm.com,normal,P3,1/28/05 12:31,1/31/05 5:44,65:13:58,711
83962,,3.1 M5,Darin_Wright@ca.ibm.com,normal,P3,1/28/05 14:53,2/7/05 12:29,237:36:14,49
83965,,3.1 M5,philippe_mulet@fr.ibm.com,normal,P3,1/28/05 15:01,2/2/05 18:14,123:13:39,143
84004,,3.1 M5,dirk_baeumer@ch.ibm.com,minor,P3,1/30/05 3:43,2/1/05 13:25,57:42:43,3
84021,,3.1 M5,dirk_baeumer@ch.ibm.com,normal,P3,1/31/05 3:52,2/1/05 6:35,26:43:17,111
84055,,3.1 M5,philippe_mulet@fr.ibm.com,normal,P3,1/31/05 11:29,2/3/05 4:41,65:12:37,37
84064,,3.1 M5,Olivier_Thomann@ca.ibm.com,normal,P3,1/31/05 12:28,1/31/05 13:40,1:12:24,101
84070,,3.1 M5,martin_aeschlimann@ch.ibm.com,normal,P3,1/31/05 13:20,2/1/05 4:27,15:07:39,219
84093,,3.1 M5,daniel_megert@ch.ibm.com,normal,P3,1/31/05 16:30,2/14/05 9:29,328:59:41,164
84181,,3.1 M5,Olivier_Thomann@ca.ibm.com,normal,P3,2/1/05 15:48,2/1/05 16:46,0:58:32,86
84194,,3.1 M5,eclipse@tom.eicher.name,normal,P3,2/1/05 18:05,2/8/05 12:51,162:46:13,13
84215,,3.1 M5,philippe_mulet@fr.ibm.com,critical,P3,2/2/05 6:25,2/2/05 10:57,4:32:28,4
84238,,3.1 M5,martin_aeschlimann@ch.ibm.com,normal,P3,2/2/05 11:15,2/2/05 13:04,1:49:51,109
84257,,3.1 M5,Darin_Wright@ca.ibm.com,blocker,P3,2/2/05 14:05,2/9/05 9:05,163:00:32,10
84259,,3.1 M5,Darin_Wright@ca.ibm.com,normal,P3,2/2/05 14:17,2/7/05 12:35,118:18:56,37
84269,,3.1 M5,daniel_megert@ch.ibm.com,normal,P3,2/2/05 15:24,2/3/05 5:18,13:54:54,10
84271,,3.1 M5,Darin_Swanson@us.ibm.com,normal,P3,2/2/05 15:31,2/6/05 23:18,103:47:47,13
84298,,3.1 M5,martin_aeschlimann@ch.ibm.com,minor,P3,2/2/05 21:10,2/14/05 14:51,281:41:28,11
84338,,3.1 M5,markus_keller@ch.ibm.com,normal,P3,2/3/05 10:55,2/15/05 11:58,289:03:28,50
84392,,3.1 M5,Darin_Wright@ca.ibm.com,normal,P3,2/3/05 16:44,2/7/05 11:32,90:48:16,13
84416,,3.1 M5,Olivier_Thomann@ca.ibm.com,normal,P3,2/4/05 4:39,2/4/05 23:30,18:51:12,15
84473,,3.1 M5,Darin_Wright@ca.ibm.com,critical,P2,2/4/05 15:21,2/10/05 9:57,138:36:54,100
84480,,3.1 M5,philippe_mulet@fr.ibm.com,normal,P3,2/4/05 16:31,2/6/05 9:00,40:29:19,1038
84492,,3.1 M5,Darin_Swanson@us.ibm.com,normal,P3,2/4/05 17:37,5/23/05 21:35,2595:58:57,8
84498,,3.1 M5,martin_aeschlimann@ch.ibm.com,normal,P3,2/4/05 19:39,2/7/05 8:24,60:45:24,4
84504,,3.1 M5,Olivier_Thomann@ca.ibm.com,normal,P3,2/4/05 21:50,2/4/05 23:27,1:37:28,40
84533,,3.1 M5,dirk_baeumer@ch.ibm.com,major,P3,2/6/05 22:05,2/7/05 6:23,8:18:51,60
84556,,3.1 M5,martin_aeschlimann@ch.ibm.com,normal,P3,2/7/05 6:59,2/7/05 8:04,1:05:44,2
84558,,3.1 M5,Olivier_Thomann@ca.ibm.com,minor,P3,2/7/05 7:06,2/7/05 21:38,14:32:12,42
84657,,3.1 M5,eclipse@tom.eicher.name,normal,P3,2/8/05 4:24,2/8/05 12:50,8:26:49,519
84669,,3.1 M5,philippe_mulet@fr.ibm.com,normal,P3,2/8/05 6:24,2/8/05 7:08,0:44:40,37
84717,,3.1 M5,Olivier_Thomann@ca.ibm.com,normal,P3,2/8/05 12:46,2/8/05 13:48,1:02:20,2
84722,,3.1 M5,tobias_widmer@ch.ibm.com,normal,P3,2/8/05 13:37,2/9/05 4:10,14:33:09,22
84724,,3.1 M5,frederic_fusier@fr.ibm.com,normal,P3,2/8/05 13:41,2/14/05 14:17,144:36:01,172
84747,,3.1 M5,martin_aeschlimann@ch.ibm.com,normal,P3,2/8/05 18:06,2/10/05 11:54,41:48:16,4
84770,,3.1 M5,Olivier_Thomann@ca.ibm.com,normal,P3,2/9/05 6:46,2/9/05 15:44,8:58:31,16
84778,,3.1 M5,Olivier_Thomann@ca.ibm.com,minor,P3,2/9/05 9:35,2/9/05 15:21,5:46:31,43
84791,,3.1 M5,philippe_mulet@fr.ibm.com,normal,P3,2/9/05 11:22,2/9/05 12:28,1:06:59,107
84794,,3.1 M5,eclipse@tom.eicher.name,normal,P3,2/9/05 11:28,2/9/05 13:15,1:47:26,2
84798,,3.1 M5,Darin_Swanson@us.ibm.com,normal,P3,2/9/05 11:50,2/14/05 17:02,125:12:41,2
84801,,3.1 M5,kent_johnson@ca.ibm.com,major,P3,2/9/05 12:30,2/11/05 13:44,49:14:45,492
84955,,3.1 M5,martin_aeschlimann@ch.ibm.com,normal,P3,2/10/05 17:57,2/15/05 11:54,113:57:31,14
84980,,3.1 M5,dirk_baeumer@ch.ibm.com,normal,P3,2/11/05 6:06,2/11/05 9:12,3:06:29,37
84981,,3.1 M5,daniel_megert@ch.ibm.com,normal,P3,2/11/05 7:03,2/14/05 10:19,75:16:27,3
84983,,3.1 M5,eclipse@tom.eicher.name,normal,P3,2/11/05 7:38,2/14/05 11:02,75:24:05,29
84986,,3.1 M5,dirk_baeumer@ch.ibm.com,normal,P3,2/11/05 8:10,2/11/05 9:53,1:43:03,14
84999,,3.1 M5,eclipse@skyluc.org,normal,P2,2/11/05 10:25,2/15/05 20:31,106:06:45,35
85026,,3.1 M5,Olivier_Thomann@ca.ibm.com,normal,P3,2/11/05 12:13,2/12/05 13:49,25:36:05,116
85100,,3.1 M5,tobias_widmer@ch.ibm.com,normal,P3,2/12/05 22:54,2/14/05 6:37,31:43:12,24
85115,,3.1 M5,Olivier_Thomann@ca.ibm.com,normal,P3,2/13/05 17:48,2/14/05 22:39,28:51:04,100
85125,,3.1 M5,Olivier_Thomann@ca.ibm.com,normal,P3,2/14/05 2:48,2/14/05 12:25,9:37:36,73
85157,,3.1 M5,philippe_mulet@fr.ibm.com,critical,P3,2/14/05 12:28,2/14/05 18:03,5:35:31,23
85159,,3.1 M5,jared_burns@us.ibm.com,normal,P3,2/14/05 12:31,2/15/05 12:23,23:52:56,4
85160,,3.1 M5,philippe_mulet@fr.ibm.com,critical,P3,2/14/05 12:38,2/15/05 5:04,16:26:57,24
85203,,3.1 M5,philippe_mulet@fr.ibm.com,major,P3,2/14/05 17:46,2/15/05 7:27,13:41:05,37
85215,,3.1 M5,Olivier_Thomann@ca.ibm.com,normal,P3,2/14/05 23:08,2/14/05 23:19,0:11:09,100
85241,,3.1 M5,Darin_Wright@ca.ibm.com,normal,P3,2/15/05 7:44,2/15/05 15:15,7:31:52,24
85243,,3.1 M5,martin_aeschlimann@ch.ibm.com,normal,P3,2/15/05 7:53,2/15/05 9:22,1:29:06,2
85254,,3.1 M5,Darin_Wright@ca.ibm.com,normal,P3,2/15/05 9:08,2/17/05 12:35,51:27:17,3
85267,,3.1 M5,markus_keller@ch.ibm.com,major,P3,2/15/05 10:29,2/15/05 10:46,0:17:25,3
85325,,3.1 M5,Darin_Swanson@us.ibm.com,normal,P2,2/15/05 16:00,2/15/05 17:53,1:53:20,35
85327,,3.1 M5,tobias_widmer@ch.ibm.com,normal,P3,2/15/05 16:09,2/17/05 5:08,36:59:56,121
85344,,3.1 M5,Darin_Swanson@us.ibm.com,normal,P3,2/15/05 17:36,2/15/05 19:14,1:38:45,23
85371,,3.1 M5,martin_aeschlimann@ch.ibm.com,critical,P3,2/16/05 3:34,2/17/05 5:09,25:35:37,6
85377,,3.1 M5,dirk_baeumer@ch.ibm.com,minor,P3,2/16/05 5:14,2/17/05 9:45,28:31:02,13
85383,,3.1 M5,martin_aeschlimann@ch.ibm.com,normal,P3,2/16/05 6:20,2/17/05 11:36,29:16:21,5
85385,,3.1 M5,martin_aeschlimann@ch.ibm.com,normal,P3,2/16/05 6:27,2/17/05 11:37,29:10:49,2
85415,,3.1 M5,markus_keller@ch.ibm.com,normal,P3,2/16/05 9:50,2/17/05 9:18,23:28:20,3
85425,,3.1 M5,martin_aeschlimann@ch.ibm.com,normal,P3,2/16/05 10:23,2/17/05 5:07,18:44:24,75
85433,,3.1 M5,Darin_Wright@ca.ibm.com,major,P3,2/16/05 10:40,2/17/05 18:01,31:21:16,50
85434,,3.1 M5,Darin_Wright@ca.ibm.com,major,P3,2/16/05 10:47,2/17/05 10:53,24:06:55,2
85473,,3.1 M5,krbarnes@ca.ibm.com,normal,P3,2/16/05 12:19,2/17/05 18:30,30:11:27,38
85480,,3.1 M5,Darin_Wright@ca.ibm.com,normal,P3,2/16/05 12:44,2/17/05 15:27,26:43:41,26
85495,,3.1 M5,eclipse@tom.eicher.name,normal,P3,2/16/05 13:23,2/17/05 5:04,15:41:43,46
85544,,3.1 M5,eclipse@tom.eicher.name,normal,P2,2/16/05 15:13,2/17/05 5:04,13:51:21,46
85549,,3.1 M5,eclipse@tom.eicher.name,normal,P3,2/16/05 15:32,2/17/05 5:23,13:51:02,2
85658,,3.1 M5,markus_keller@ch.ibm.com,major,P3,2/17/05 3:33,2/17/05 4:51,1:18:22,140
85663,,3.1 M5,krbarnes@ca.ibm.com,blocker,P2,2/17/05 4:41,2/17/05 18:31,13:50:34,23
85686,,3.1 M5,eclipse@skyluc.org,normal,P3,2/17/05 7:44,2/17/05 12:24,4:40:12,2
85717,,3.1 M5,martin_aeschlimann@ch.ibm.com,normal,P3,2/17/05 10:59,2/17/05 11:29,0:30:56,41
85829,,3.1 M5,eclipse@skyluc.org,normal,P3,2/18/05 10:29,2/18/05 12:55,2:26:28,6