bug#	Dev#	Effort	Prof 1	Prof 2	Prof 3	Prof 4	Prof 5	Prof 6	Prof 7	Prof 8	Prof 9	Prof 10	Prof 11	Prof 12
28508	75	463.08	173.65	0.00	34.73	0.00	34.73	34.73	34.73	17.37	17.37	0.00	0.00	115.77
32498	39	460.92	184.37	0.00	36.87	0.00	36.87	36.87	36.87	18.44	18.44	0.00	0.00	92.18
38883	3	291.33	97.11	0.00	19.42	0.00	19.42	19.42	19.42	9.71	9.71	0.00	0.00	97.11
38950	15	269.55	101.08	0.00	20.22	0.00	20.22	20.22	20.22	10.11	10.11	0.00	0.00	67.39
39143	78	279.93	111.97	0.00	22.39	0.00	22.39	22.39	22.39	11.20	11.20	0.00	0.00	55.99
39235	3	254.92	95.59	0.00	19.12	0.00	19.12	19.12	19.12	9.56	9.56	0.00	0.00	63.73
40255	15	264.08	113.18	0.00	22.64	0.00	22.64	22.64	22.64	11.32	11.32	0.00	0.00	37.73
40559	75	247.00	82.33	0.00	16.47	0.00	16.47	16.47	16.47	8.23	8.23	0.00	0.00	82.33
40618	32	215.92	80.97	0.00	16.19	0.00	16.19	16.19	16.19	8.10	8.10	0.00	0.00	53.98
40688	23	229.20	109.35	0.00	21.87	0.00	21.87	21.87	21.87	10.94	10.94	0.00	0.00	10.49
40709	3	223.16	104.78	0.00	20.96	0.00	20.96	20.96	20.96	10.48	10.48	0.00	0.00	13.61
40783	49	216.61	101.47	0.00	20.29	0.00	20.29	20.29	20.29	10.15	10.15	0.00	0.00	13.67
41245	75	642.36	214.12	0.00	42.82	0.00	42.82	42.82	42.82	21.41	21.41	0.00	214.12	0.00
41545	75	223.11	107.42	0.00	21.48	0.00	21.48	21.48	21.48	10.74	10.74	0.00	8.26	0.00
41743	20	218.16	105.54	0.00	21.11	0.00	21.11	21.11	21.11	10.55	10.55	0.00	7.08	0.00
42009	20	414.96	155.61	0.00	31.12	0.00	31.12	31.12	31.12	15.56	15.56	0.00	103.74	0.00
42489	3	210.09	102.25	0.00	20.45	0.00	20.45	20.45	20.45	10.23	10.23	0.00	5.59	0.00
42554	1	413.46	155.05	0.00	31.01	0.00	31.01	31.01	31.01	15.50	15.50	0.00	103.36	0.00
42795	56	171.23	80.58	0.00	16.12	0.00	16.12	16.12	16.12	8.06	8.06	0.00	10.07	0.00
42854	3	167.31	80.52	0.00	16.10	0.00	16.10	16.10	16.10	8.05	8.05	0.00	6.27	0.00
42859	3	167.20	71.66	0.00	14.33	0.00	14.33	14.33	14.33	7.17	7.17	0.00	23.89	0.00
43250	78	189.79	91.45	0.00	18.29	0.00	18.29	18.29	18.29	9.15	9.15	0.00	6.88	0.00
43513	33	154.76	77.38	0.00	15.48	0.00	15.48	15.48	15.48	7.74	7.74	0.00	0.00	0.00
43840	56	161.68	80.84	0.00	16.17	0.00	16.17	16.17	16.17	8.08	8.08	0.00	0.00	0.00
44323	78	135.97	67.99	0.00	13.60	0.00	13.60	13.60	13.60	6.80	6.80	0.00	0.00	0.00
44455	46	156.60	78.30	0.00	15.66	0.00	15.66	15.66	15.66	7.83	7.83	0.00	0.00	0.00
44795	49	136.29	68.15	0.00	13.63	0.00	13.63	13.63	13.63	6.81	6.81	0.00	0.00	0.00
45544	49	136.96	68.48	0.00	13.70	0.00	13.70	13.70	13.70	6.85	6.85	0.00	0.00	0.00
45692	33	448.06	224.03	0.00	44.81	0.00	44.81	44.81	44.81	22.40	22.40	0.00	0.00	0.00
45912	56	110.98	55.49	0.00	11.10	0.00	11.10	11.10	11.10	5.55	5.55	0.00	0.00	0.00
46802	18	107.05	53.52	0.00	10.70	0.00	10.70	10.70	10.70	5.35	5.35	0.00	0.00	0.00
47244	20	118.65	59.32	0.00	11.86	0.00	11.86	11.86	11.86	5.93	5.93	0.00	0.00	0.00
47312	32	82.62	41.31	0.00	8.26	0.00	8.26	8.26	8.26	4.13	4.13	0.00	0.00	0.00
47373	32	68.12	34.06	0.00	6.81	0.00	6.81	6.81	6.81	3.41	3.41	0.00	0.00	0.00
47458	3	82.47	41.24	0.00	8.25	0.00	8.25	8.25	8.25	4.12	4.12	0.00	0.00	0.00
48686	22	89.02	44.51	0.00	8.90	0.00	8.90	8.90	8.90	4.45	4.45	0.00	0.00	0.00
48702	59	103.75	51.88	0.00	10.38	0.00	10.38	10.38	10.38	5.19	5.19	0.00	0.00	0.00
48773	46	92.64	46.32	0.00	9.26	0.00	9.26	9.26	9.26	4.63	4.63	0.00	0.00	0.00
48819	78	88.07	44.04	0.00	8.81	0.00	8.81	8.81	8.81	4.40	4.40	0.00	0.00	0.00
48878	46	89.30	44.65	0.00	8.93	0.00	8.93	8.93	8.93	4.46	4.46	0.00	0.00	0.00
48910	56	67.13	33.57	0.00	6.71	0.00	6.71	6.71	6.71	3.36	3.36	0.00	0.00	0.00
48933	32	85.45	42.72	0.00	8.54	0.00	8.54	8.54	8.54	4.27	4.27	0.00	0.00	0.00
48934	23	101.75	50.88	0.00	10.18	0.00	10.18	10.18	10.18	5.09	5.09	0.00	0.00	0.00
49014	14	58.66	29.33	0.00	5.87	0.00	5.87	5.87	5.87	2.93	2.93	0.00	0.00	0.00
49094	56	55.40	27.70	0.00	5.54	0.00	5.54	5.54	5.54	2.77	2.77	0.00	0.00	0.00
49096	33	64.33	32.17	0.00	6.43	0.00	6.43	6.43	6.43	3.22	3.22	0.00	0.00	0.00
49216	22	77.60	38.80	0.00	7.76	0.00	7.76	7.76	7.76	3.88	3.88	0.00	0.00	0.00
49218	20	77.05	38.53	0.00	7.71	0.00	7.71	7.71	7.71	3.85	3.85	0.00	0.00	0.00
49383	39	71.12	35.56	0.00	7.11	0.00	7.11	7.11	7.11	3.56	3.56	0.00	0.00	0.00
49445	50	60.11	30.05	0.00	6.01	0.00	6.01	6.01	6.01	3.01	3.01	0.00	0.00	0.00
49446	33	61.78	30.89	0.00	6.18	0.00	6.18	6.18	6.18	3.09	3.09	0.00	0.00	0.00
49559	78	67.90	33.95	0.00	6.79	0.00	6.79	6.79	6.79	3.40	3.40	0.00	0.00	0.00
49751	20	73.29	36.65	0.00	7.33	0.00	7.33	7.33	7.33	3.66	3.66	0.00	0.00	0.00
49829	15	63.28	31.64	0.00	6.33	0.00	6.33	6.33	6.33	3.16	3.16	0.00	0.00	0.00
49887	15	39.19	19.60	0.00	3.92	0.00	3.92	3.92	3.92	1.96	1.96	0.00	0.00	0.00
50052	78	60.23	30.12	0.00	6.02	0.00	6.02	6.02	6.02	3.01	3.01	0.00	0.00	0.00
50156	14	420.20	210.10	0.00	42.02	0.00	42.02	42.02	42.02	21.01	21.01	0.00	0.00	0.00
50244	20	57.67	28.84	0.00	5.77	0.00	5.77	5.77	5.77	2.88	2.88	0.00	0.00	0.00
50250	56	31.11	15.56	0.00	3.11	0.00	3.11	3.11	3.11	1.56	1.56	0.00	0.00	0.00
50282	75	57.99	29.00	0.00	5.80	0.00	5.80	5.80	5.80	2.90	2.90	0.00	0.00	0.00
50303	50	52.92	26.46	0.00	5.29	0.00	5.29	5.29	5.29	2.65	2.65	0.00	0.00	0.00
50384	32	48.57	24.29	0.00	4.86	0.00	4.86	4.86	4.86	2.43	2.43	0.00	0.00	0.00
50416	57	49.84	24.92	0.00	4.98	0.00	4.98	4.98	4.98	2.49	2.49	0.00	0.00	0.00
50422	78	58.94	29.47	0.00	5.89	0.00	5.89	5.89	5.89	2.95	2.95	0.00	0.00	0.00
50452	15	52.58	26.29	0.00	5.26	0.00	5.26	5.26	5.26	2.63	2.63	0.00	0.00	0.00
50493	20	50.40	25.20	0.00	5.04	0.00	5.04	5.04	5.04	2.52	2.52	0.00	0.00	0.00
50549	20	56.99	28.50	0.00	5.70	0.00	5.70	5.70	5.70	2.85	2.85	0.00	0.00	0.00
50550	20	57.60	28.80	0.00	5.76	0.00	5.76	5.76	5.76	2.88	2.88	0.00	0.00	0.00
50551	20	68.10	34.05	0.00	6.81	0.00	6.81	6.81	6.81	3.41	3.41	0.00	0.00	0.00
50567	32	65.41	32.70	0.00	6.54	0.00	6.54	6.54	6.54	3.27	3.27	0.00	0.00	0.00
50569	3	73.47	36.73	0.00	7.35	0.00	7.35	7.35	7.35	3.67	3.67	0.00	0.00	0.00
50610	55	27.57	13.78	0.00	2.76	0.00	2.76	2.76	2.76	1.38	1.38	0.00	0.00	0.00
50628	3	29.62	14.81	0.00	2.96	0.00	2.96	2.96	2.96	1.48	1.48	0.00	0.00	0.00
50701	33	25.15	12.58	0.00	2.52	0.00	2.52	2.52	2.52	1.26	1.26	0.00	0.00	0.00
50724	75	49.69	24.84	0.00	4.97	0.00	4.97	4.97	4.97	2.48	2.48	0.00	0.00	0.00
50812	46	59.00	29.50	0.00	5.90	0.00	5.90	5.90	5.90	2.95	2.95	0.00	0.00	0.00
50839	75	48.54	24.27	0.00	4.85	0.00	4.85	4.85	4.85	2.43	2.43	0.00	0.00	0.00
50856	46	54.46	27.23	0.00	5.45	0.00	5.45	5.45	5.45	2.72	2.72	0.00	0.00	0.00
50879	46	60.40	30.20	0.00	6.04	0.00	6.04	6.04	6.04	3.02	3.02	0.00	0.00	0.00
50886	14	33.51	16.76	0.00	3.35	0.00	3.35	3.35	3.35	1.68	1.68	0.00	0.00	0.00
50986	23	55.22	27.61	0.00	5.52	0.00	5.52	5.52	5.52	2.76	2.76	0.00	0.00	0.00
50987	2	45.33	22.66	0.00	4.53	0.00	4.53	4.53	4.53	2.27	2.27	0.00	0.00	0.00
51007	15	23.55	11.78	0.00	2.36	0.00	2.36	2.36	2.36	1.18	1.18	0.00	0.00	0.00
51008	17	46.82	23.41	0.00	4.68	0.00	4.68	4.68	4.68	2.34	2.34	0.00	0.00	0.00
51052	46	54.26	27.13	0.00	5.43	0.00	5.43	5.43	5.43	2.71	2.71	0.00	0.00	0.00
51101	32	30.63	15.32	0.00	3.06	0.00	3.06	3.06	3.06	1.53	1.53	0.00	0.00	0.00
51146	57	44.32	22.16	0.00	4.43	0.00	4.43	4.43	4.43	2.22	2.22	0.00	0.00	0.00
51294	39	46.32	23.16	0.00	4.63	0.00	4.63	4.63	4.63	2.32	2.32	0.00	0.00	0.00
51295	3	39.35	19.67	0.00	3.93	0.00	3.93	3.93	3.93	1.97	1.97	0.00	0.00	0.00
51307	32	48.12	24.06	0.00	4.81	0.00	4.81	4.81	4.81	2.41	2.41	0.00	0.00	0.00
51393	32	15.85	7.93	0.00	1.59	0.00	1.59	1.59	1.59	0.79	0.79	0.00	0.00	0.00
51394	56	33.84	16.92	0.00	3.38	0.00	3.38	3.38	3.38	1.69	1.69	0.00	0.00	0.00
51401	30	2.01	1.01	0.00	0.20	0.00	0.20	0.20	0.20	0.10	0.10	0.00	0.00	0.00
51402	32	28.89	14.45	0.00	2.89	0.00	2.89	2.89	2.89	1.44	1.44	0.00	0.00	0.00
51417	46	38.91	19.45	0.00	3.89	0.00	3.89	3.89	3.89	1.95	1.95	0.00	0.00	0.00
51487	3	10.48	5.24	0.00	1.05	0.00	1.05	1.05	1.05	0.52	0.52	0.00	0.00	0.00
51495	8	34.05	17.03	0.00	3.41	0.00	3.41	3.41	3.41	1.70	1.70	0.00	0.00	0.00
51533	23	34.73	17.36	0.00	3.47	0.00	3.47	3.47	3.47	1.74	1.74	0.00	0.00	0.00
51546	33	33.73	16.86	0.00	3.37	0.00	3.37	3.37	3.37	1.69	1.69	0.00	0.00	0.00
51559	39	1.52	0.76	0.00	0.15	0.00	0.15	0.15	0.15	0.08	0.08	0.00	0.00	0.00
51560	23	2.74	1.37	0.00	0.27	0.00	0.27	0.27	0.27	0.14	0.14	0.00	0.00	0.00
51568	15	32.45	16.22	0.00	3.24	0.00	3.24	3.24	3.24	1.62	1.62	0.00	0.00	0.00
51579	32	6.74	3.37	0.00	0.67	0.00	0.67	0.67	0.67	0.34	0.34	0.00	0.00	0.00
51582	5	158.92	79.46	0.00	15.89	0.00	15.89	15.89	15.89	7.95	7.95	0.00	0.00	0.00
51593	1	2.07	1.03	0.00	0.21	0.00	0.21	0.21	0.21	0.10	0.10	0.00	0.00	0.00
51635	15	4.64	2.32	0.00	0.46	0.00	0.46	0.46	0.46	0.23	0.23	0.00	0.00	0.00
51644	13	1.47	0.73	0.00	0.15	0.00	0.15	0.15	0.15	0.07	0.07	0.00	0.00	0.00
51645	30	25.70	12.85	0.00	2.57	0.00	2.57	2.57	2.57	1.28	1.28	0.00	0.00	0.00
51690	20	38.39	19.19	0.00	3.84	0.00	3.84	3.84	3.84	1.92	1.92	0.00	0.00	0.00
51694	15	3.72	1.86	0.00	0.37	0.00	0.37	0.37	0.37	0.19	0.19	0.00	0.00	0.00
51696	15	3.73	1.87	0.00	0.37	0.00	0.37	0.37	0.37	0.19	0.19	0.00	0.00	0.00
51726	15	14.17	7.09	0.00	1.42	0.00	1.42	1.42	1.42	0.71	0.71	0.00	0.00	0.00
51777	76	5.63	2.81	0.00	0.56	0.00	0.56	0.56	0.56	0.28	0.28	0.00	0.00	0.00
51784	32	6.98	3.49	0.00	0.70	0.00	0.70	0.70	0.70	0.35	0.35	0.00	0.00	0.00
51787	15	22.81	11.41	0.00	2.28	0.00	2.28	2.28	2.28	1.14	1.14	0.00	0.00	0.00
51789	15	4.44	2.22	0.00	0.44	0.00	0.44	0.44	0.44	0.22	0.22	0.00	0.00	0.00
51820	32	581.60	290.80	0.00	58.16	0.00	58.16	58.16	58.16	29.08	29.08	0.00	0.00	0.00
51825	23	21.21	10.61	0.00	2.12	0.00	2.12	2.12	2.12	1.06	1.06	0.00	0.00	0.00
51831	30	1.11	0.56	0.00	0.11	0.00	0.11	0.11	0.11	0.06	0.06	0.00	0.00	0.00
51834	15	16.49	8.24	0.00	1.65	0.00	1.65	1.65	1.65	0.82	0.82	0.00	0.00	0.00
51883	59	21.02	10.51	0.00	2.10	0.00	2.10	2.10	2.10	1.05	1.05	0.00	0.00	0.00
51935	14	25.45	12.73	0.00	2.55	0.00	2.55	2.55	2.55	1.27	1.27	0.00	0.00	0.00
51937	7	16.31	8.15	0.00	1.63	0.00	1.63	1.63	1.63	0.82	0.82	0.00	0.00	0.00
51938	75	26.65	13.33	0.00	2.67	0.00	2.67	2.67	2.67	1.33	1.33	0.00	0.00	0.00