bug_id,Depends_On,Milestone,assigned_to,bug_severity,priority,creation_ts,delta_ts,duration,churned_loc
36101,,,platform-runtime-inbox@eclipse.org,normal,P3,4/5/03 8:03,11/19/04 16:56,,30
37233,,,kmoir@ca.ibm.com,major,P2,5/5/03 13:45,3/23/12 14:41,,3
39014,,,platform-text-inbox@eclipse.org,enhancement,P3,6/17/03 10:18,4/6/04 9:13,,9
39024,,,Darin_Wright@ca.ibm.com,normal,P3,6/17/03 11:56,4/23/04 11:48,,12
39772,,,Michael_Valenta@ca.ibm.com,normal,P3,7/8/03 15:21,12/18/03 12:01,,10
40060,,,jean-michel_lemieux@ca.ibm.com,normal,P3,7/14/03 16:01,3/22/04 22:48,,24
40725,,,jean-michel_lemieux@ca.ibm.com,normal,P3,7/24/03 13:33,5/6/04 0:56,,1197
40916,,,michaelvanmeekeren@yahoo.ca,normal,P3,7/29/03 16:47,3/10/04 16:47,,36
41090,,,felipe_heidrich@ca.ibm.com,normal,P3,8/3/03 20:29,5/14/04 4:44,,4
42120,,,eclipse@jfront.com,normal,P3,8/27/03 10:49,4/21/04 14:09,,32
42138,,,Darin_Wright@ca.ibm.com,enhancement,P3,8/27/03 11:28,4/21/04 13:30,,38
42140,,,platform-vcm-inbox@eclipse.org,normal,P3,8/27/03 11:33,11/22/03 6:21,,10
42185,,,birsan@ca.ibm.com,normal,P3,8/27/03 15:37,6/4/04 15:34,,16
44519,,,daniel_megert@ch.ibm.com,enhancement,P3,10/9/03 4:18,6/28/06 2:51,,20
45729,,,t.s.maeder@hispeed.ch,normal,P2,10/29/03 10:18,5/4/04 4:39,,59
47267,,,platform-resources-inbox@eclipse.org,normal,P3,11/21/03 16:36,8/26/04 12:15,,210
48849,,,Silenio_Quarti@ca.ibm.com,normal,P1,12/16/03 9:57,5/20/04 10:45,,10
49223,,,ymnk@jcraft.com,enhancement,P3,12/20/03 7:34,1/25/04 3:31,,489
49226,,,ymnk@jcraft.com,normal,P3,12/20/03 7:48,2/10/04 20:26,,12
49811,53673,,nick_edgar@ca.ibm.com,enhancement,P2,1/10/04 12:24,3/14/05 15:50,,695
50438,,,sxenos@gmail.com,normal,P3,1/22/04 17:59,9/14/04 9:19,,38
50534,,,nick_edgar@ca.ibm.com,normal,P2,1/24/04 2:44,4/28/05 14:23,,258
"Main.main(Mai""",,,,,,,,,
50555,,,ymnk@jcraft.com,normal,P3,1/25/04 2:16,4/10/04 17:45,,38
50572,,,nick_edgar@ca.ibm.com,enhancement,P3,1/25/04 15:21,4/27/05 9:40,,42
50631,,,Michael_Valenta@ca.ibm.com,normal,P1,1/26/04 13:57,5/18/04 13:55,,402
51085,,,michaelvanmeekeren@yahoo.ca,major,P3,2/2/04 17:03,10/22/04 15:49,,22
63616,,,ymnk@jcraft.com,normal,P3,5/23/04 18:51,5/31/05 14:15,,162
63618,,,platform-update-inbox@eclipse.org,normal,P2,5/23/04 19:00,1/28/05 15:17,,63
63832,,,michaelvanmeekeren@yahoo.ca,normal,P3,5/25/04 8:56,12/16/04 12:04,,54
64362,,,Tod_Creasey@ca.ibm.com,normal,P2,5/27/04 11:39,5/10/05 14:54,,20
67916,,,mfaraj@ca.ibm.com,normal,P3,6/18/04 22:46,10/3/05 11:47,,153
68335,,,platform-doc-inbox@eclipse.org,normal,P3,6/23/04 13:16,11/10/05 15:50,,1858
68481,,,platform-text-inbox@eclipse.org,normal,P3,6/24/04 11:01,7/19/04 11:17,,1551
71747,,,nick_edgar@ca.ibm.com,major,P3,8/10/04 18:20,9/8/04 16:17,,24