bug_id,Depends_On,Milestone,assigned_to,bug_severity,priority,creation_ts,delta_ts,Duration,churned_loc
39251,,,Darin_Wright@ca.ibm.com,normal,P3,6/23/03 23:59,12/5/03 10:57,,12
40541,,,eclipse@skyluc.org,normal,P3,7/21/03 4:37,12/15/03 20:02,,18
41220,,,t.s.maeder@hispeed.ch,normal,P3,8/6/03 15:45,12/9/03 4:29,,42
41252,,,t.s.maeder@hispeed.ch,normal,P3,8/7/03 8:45,12/17/03 6:07,,84
41609,,,Darin_Swanson@us.ibm.com,enhancement,P3,8/15/03 10:00,12/8/03 17:59,,14
41676,,,csmclaren@andelain.com,normal,P2,8/19/03 7:59,12/11/03 15:55,,118
41747,,,platform-vcm-inbox@eclipse.org,enhancement,P3,8/20/03 14:24,12/17/03 9:12,,41
41804,,,john_arthorne@ca.ibm.com,enhancement,P3,8/21/03 10:39,12/3/03 16:40,,15
41815,,,andre_weinand@ch.ibm.com,normal,P3,8/21/03 12:50,12/17/03 9:13,,18
42080,,,john_arthorne@ca.ibm.com,normal,P3,8/27/03 4:31,5/27/04 10:37,,10
42272,,,Darin_Swanson@us.ibm.com,normal,P3,8/29/03 15:05,12/15/03 8:21,,12
42518,,,platform-resources-inbox@eclipse.org,normal,P3,9/4/03 9:15,1/8/04 17:57,,15
42883,,,kim_horne@ca.ibm.com,normal,P3,9/10/03 13:28,4/1/04 15:41,,15
42942,,,platform-vcm-inbox@eclipse.org,normal,P3,9/11/03 9:12,12/17/03 10:46,,32
43161, 44003     46589    ,,douglas.pollock@gmail.com,minor,P3,9/16/03 12:12,12/17/03 9:52,,17
44009,,,douglas.pollock@gmail.com,enhancement,P3,10/1/03 11:56,12/17/03 9:53,,63
44387,39074,,kim_horne@ca.ibm.com,normal,P3,10/8/03 0:00,4/1/04 15:41,,44
44685,,,platform-resources-inbox@eclipse.org,normal,P3,10/10/03 18:08,12/17/03 17:48,,3
44784,,,birsan@ca.ibm.com,minor,P3,10/13/03 19:58,11/24/03 23:52,,24
45139,,,john_arthorne@ca.ibm.com,normal,P3,10/17/03 15:34,12/9/03 13:41,,10
45239,,,andre_weinand@ch.ibm.com,normal,P3,10/20/03 16:15,12/17/03 10:09,,7
45400,,,kim_horne@ca.ibm.com,normal,P3,10/22/03 13:41,4/1/04 15:41,,416
45406,,,jean-michel_lemieux@ca.ibm.com,normal,P3,10/22/03 13:54,12/17/03 9:06,,44
45825,,,kim_horne@ca.ibm.com,normal,P3,10/30/03 14:59,4/1/04 15:41,,80
45974,,,platform-ant-inbox@eclipse.org,normal,P3,11/3/03 14:07,11/29/03 0:56,,8
45981,,,Darin_Swanson@us.ibm.com,normal,P3,11/3/03 14:48,11/29/03 0:40,,33
45989,,,grant_gayed@ca.ibm.com,normal,P3,11/3/03 16:08,12/9/03 12:02,,6
45991,,,jared_burns@us.ibm.com,normal,P3,11/3/03 16:29,12/13/03 15:18,,47
46797,,,Darin_Wright@ca.ibm.com,normal,P3,11/17/03 14:49,12/12/03 16:27,,34
46839,,,nick_edgar@ca.ibm.com,normal,P3,11/18/03 10:32,11/18/03 11:34,,60
46859,,,grant_gayed@ca.ibm.com,normal,P3,11/18/03 14:06,11/21/03 16:37,,18
46863,,,nick_edgar@ca.ibm.com,normal,P3,11/18/03 14:17,12/1/03 15:25,,21
47035,,,platform-resources-inbox@eclipse.org,normal,P3,11/19/03 15:33,11/27/03 16:24,,18
47044,,,jean-michel_lemieux@ca.ibm.com,normal,P3,11/19/03 17:05,1/19/04 15:03,,62
47047,,,jean-michel_lemieux@ca.ibm.com,normal,P3,11/19/03 17:13,12/17/03 10:44,,27
47053,,,Michael_Valenta@ca.ibm.com,normal,P3,11/19/03 19:39,11/27/03 14:02,,4908
47070,,,platform-text-inbox@eclipse.org,normal,P3,11/20/03 6:37,12/16/03 9:45,,8
47077,,,john_arthorne@ca.ibm.com,normal,P3,11/20/03 8:02,11/26/03 16:16,,30
47089,,,platform-vcm-inbox@eclipse.org,normal,P3,11/20/03 10:15,11/21/03 11:37,,36
47137,,,eclipse@skyluc.org,normal,P3,11/20/03 13:44,12/4/03 19:25,,32
47139,,,Darin_Wright@ca.ibm.com,normal,P3,11/20/03 13:53,12/5/03 10:58,,25
47140,,,Darin_Wright@ca.ibm.com,normal,P3,11/20/03 13:55,12/5/03 10:59,,60
47143,,,grant_gayed@ca.ibm.com,normal,P3,11/20/03 14:03,11/25/03 15:21,,20
47146,,,grant_gayed@ca.ibm.com,normal,P3,11/20/03 14:27,11/20/03 19:42,,20
47147,,,nick_edgar@ca.ibm.com,major,P2,11/20/03 14:35,12/15/03 13:56,,20
47155,,,jared_burns@us.ibm.com,normal,P3,11/20/03 14:51,11/24/03 20:16,,15
47156,,,t.s.maeder@hispeed.ch,normal,P3,11/20/03 14:52,12/11/03 10:21,,40
47158,,,platform-team-inbox@eclipse.org,normal,P3,11/20/03 15:08,12/17/03 10:52,,40
47168,,,jean-michel_lemieux@ca.ibm.com,normal,P3,11/20/03 16:05,12/17/03 10:54,,20
47175,,,platform-resources-inbox@eclipse.org,normal,P3,11/20/03 16:20,11/21/03 16:11,,45
47237,,,konradk@ca.ibm.com,trivial,P3,11/21/03 10:46,12/1/03 12:30,,100
47248,,,Darin_Swanson@us.ibm.com,normal,P3,11/21/03 11:55,11/24/03 15:01,,25
47254,,,Michael_Valenta@ca.ibm.com,normal,P3,11/21/03 13:13,12/11/03 11:07,,136
47268,,,Darin_Swanson@us.ibm.com,normal,P3,11/21/03 17:17,12/12/03 19:38,,56
47287,,,jean-michel_lemieux@ca.ibm.com,normal,P3,11/22/03 8:05,12/17/03 11:08,,196
47289,,,Darin_Wright@ca.ibm.com,normal,P3,11/22/03 8:50,12/8/03 14:09,,278
47298,,,konradk@ca.ibm.com,normal,P3,11/23/03 6:27,2/4/04 9:05,,174
47305,,,eclipse@skyluc.org,normal,P3,11/23/03 10:57,12/8/03 18:50,,39
47308,,,Darin_Wright@ca.ibm.com,critical,P1,11/23/03 12:33,12/9/03 17:34,,162
47328,,,platform-cvs-inbox@eclipse.org,normal,P3,11/24/03 5:08,12/17/03 11:07,,264
47331,,,platform-team-inbox@eclipse.org,normal,P3,11/24/03 5:45,12/17/03 9:06,,35
47347,,,ymnk@jcraft.com,normal,P3,11/24/03 10:28,12/17/03 11:09,,25
47368,,,Darin_Wright@ca.ibm.com,normal,P3,11/24/03 15:52,12/1/03 19:55,,30
47370,,,jared_burns@us.ibm.com,normal,P3,11/24/03 17:18,12/1/03 22:17,,25
47371,,,konradk@ca.ibm.com,blocker,P3,11/24/03 17:29,11/25/03 8:47,,25
47372,,,birsan@ca.ibm.com,blocker,P3,11/24/03 17:33,11/24/03 23:04,,15
47377,,,Darin_Swanson@us.ibm.com,normal,P3,11/24/03 19:01,12/5/03 18:37,,20
47382,,,Michael_Valenta@ca.ibm.com,blocker,P3,11/24/03 20:44,12/16/03 13:56,,30
47389,,,Darin_Swanson@us.ibm.com,normal,P3,11/24/03 22:31,12/8/03 22:35,,471
47391,,,grant_gayed@ca.ibm.com,normal,P3,11/25/03 3:39,11/25/03 15:46,,444
47404,,,Tod_Creasey@ca.ibm.com,major,P3,11/25/03 7:06,5/10/05 14:54,,90
47422,,,jared_burns@us.ibm.com,major,P2,11/25/03 9:45,12/15/03 13:10,,45
47433,,,jean-michel_lemieux@ca.ibm.com,major,P2,11/25/03 11:18,12/18/03 13:59,,40
47447,,,douglas.pollock@gmail.com,major,P3,11/25/03 12:30,12/17/03 10:28,,65
47463,,,platform-update-inbox@eclipse.org,critical,P3,11/25/03 15:41,12/1/03 13:14,,90
47477,,,jared_burns@us.ibm.com,normal,P3,11/25/03 18:08,12/1/03 22:22,,75
47478,,,Darin_Swanson@us.ibm.com,normal,P3,11/25/03 18:21,11/26/03 16:30,,78
47482,,,birsan@ca.ibm.com,normal,P3,11/25/03 21:27,11/25/03 21:56,,86
48364,,,kim_horne@ca.ibm.com,major,P3,12/9/03 16:28,4/1/04 15:41,,26
48379,,,eclipse@skyluc.org,normal,P3,12/9/03 18:34,12/9/03 19:59,,10
48411,,,douglas.pollock@gmail.com,normal,P3,12/10/03 9:52,12/17/03 10:39,,10
48412,,,platform-resources-inbox@eclipse.org,normal,P3,12/10/03 9:56,12/15/03 10:34,,8
48423,,,douglas.pollock@gmail.com,normal,P3,12/10/03 13:24,12/17/03 10:19,,8
48577,,,Michael_Valenta@ca.ibm.com,normal,P3,12/11/03 15:40,12/12/03 12:36,,178
48608,,,Darin_Swanson@us.ibm.com,normal,P3,12/11/03 17:04,12/12/03 12:14,,14
48634,,,birsan@ca.ibm.com,normal,P3,12/12/03 8:32,12/14/03 15:22,,25
48635,,,platform-update-inbox@eclipse.org,normal,P3,12/12/03 8:39,12/12/03 10:53,,8
48644,,,douglas.pollock@gmail.com,normal,P1,12/12/03 10:57,12/17/03 9:45,,30
48652,,,platform-text-inbox@eclipse.org,normal,P3,12/12/03 13:16,12/12/03 14:15,,50
48718,,,birsan@ca.ibm.com,normal,P3,12/14/03 22:16,12/15/03 9:42,,45
48745,,,kim_horne@ca.ibm.com,normal,P3,12/15/03 9:09,4/1/04 15:41,,21
48747,,,Darin_Wright@ca.ibm.com,normal,P3,12/15/03 9:19,12/15/03 17:28,,42
48762,,,konstantinos_sakellis@ca.ibm.com,major,P2,12/15/03 11:53,12/18/03 13:35,,10
48786,,,michaelvanmeekeren@yahoo.ca,normal,P3,12/15/03 15:20,12/17/03 16:51,,36
48828,,,eclipse@tom.eicher.name,normal,P3,12/16/03 4:57,12/18/03 5:52,,67
48832,,,csmclaren@andelain.com,major,P1,12/16/03 6:44,12/17/03 6:15,,60
48852,,,daniel_megert@ch.ibm.com,normal,P3,12/16/03 10:09,12/18/03 5:52,,24
48866,,,platform-text-inbox@eclipse.org,major,P3,12/16/03 11:03,12/16/03 13:55,,20
48900,,,douglas.pollock@gmail.com,trivial,P1,12/16/03 14:28,12/17/03 9:46,,176
48902,,,platform-cvs-inbox@eclipse.org,normal,P3,12/16/03 14:46,12/18/03 13:59,,107
49005,,,kim_horne@ca.ibm.com,normal,P3,12/17/03 8:52,4/1/04 15:41,,10
49008,,,birsan@ca.ibm.com,blocker,P1,12/17/03 9:20,12/17/03 22:38,,16
49023,,,konstantinos_sakellis@ca.ibm.com,critical,P1,12/17/03 10:16,12/17/03 13:57,,21
49031,,,douglas.pollock@gmail.com,normal,P3,12/17/03 10:56,12/17/03 10:57,,8
49039,,,konradk@ca.ibm.com,major,P2,12/17/03 11:26,12/17/03 14:11,,12
49088,,,konstantinos_sakellis@ca.ibm.com,normal,P3,12/17/03 17:30,1/26/04 21:25,,12
49103,,,ymnk@jcraft.com,normal,P3,12/18/03 9:52,12/18/03 10:08,,258
49135,,,birsan@ca.ibm.com,blocker,P3,12/18/03 14:41,12/18/03 15:13,,8