bug#	Dev#	Effort	skill1	skill2	skill3	skill4	skill5	skill6	skill7	skill8	skill9	skill10	Sevirity	Priority	Old	CustomerBug
99992	0	22	0.55	0	0.1	0	0	0	0	0	0.13	0.22	1	3	42	0
99940	0	6	0	0	0	0	0.1	0	0.55	0	0	0.35	2	5	42	0
99867	0	22	0.2	0.13	0	0.13	0.2	0	0.24	0	0.1	0	1	3	153	0
99607	0	12	0.4	0.23	0.17	0	0	0	0	0.2	0	0	2	4	204	0
99070	0	14	0	0.23	0.33	0.1	0	0.34	0	0	0	0	2	4	206	0
98641	0	8	0.2	0	0.2	0.4	0	0.1	0	0.1	0	0	2	3	434	0
98553	0	11	0	0.1	0	0	0.2	0	0.1	0.5	0	0.1	2	4	434	0
98499	0	6	0.35	0	0	0	0	0.1	0	0.45	0.1	0	3	3	437	0
97869	0	21	0.2	0	0	0.35	0	0	0.24	0	0	0.21	2	4	437	0
97780	0	25	0	0	0.12	0.38	0	0	0	0	0.4	0.1	5	1	438	0
97610	0	14	0.35	0	0	0	0	0.1	0	0.45	0.1	0	2	3	438	0
97469	0	13	0	0	0	0	0.1	0	0.55	0	0	0.35	3	3	438	0
97235	0	22	0	0	0.1	0	0	0.22	0.1	0	0.35	0.23	2	3	517	0
96793	0	12	0.55	0	0.1	0	0	0	0	0	0.13	0.22	1	3	521	0
96645	0	8	0.06	0	0.2	0.2	0.1	0.21	0	0	0	0.23	1	3	521	0
96080	0	8	0.33	0	0.34	0	0.25	0	0	0.08	0	0	3	5	521	0
96055	0	15	0	0	0.1	0.26	0	0	0.32	0	0.22	0.1	1	4	522	0
95829	0	21	0	0	0.55	0	0.15	0.3	0	0	0	0	3	4	523	0
95810	0	12	0.2	0	0.2	0.4	0	0.1	0	0.1	0	0	3	3	646	0
95475	0	11	0.33	0.1	0	0.33	0	0	0.24	0	0	0	2	5	647	0
95004	0	23	0	0	0	0	0	0.55	0.13	0	0.22	0.1	3	5	679	0
94329	0	9	0.2	0.13	0	0.13	0.2	0	0.24	0	0.1	0	1	4	728	0
91282	0	28	0.33	0.1	0	0.33	0	0	0.24	0	0	0	4	1	731	0
90090	0	11	0	0.1	0	0.4	0.1	0	0.2	0	0	0.2	2	4	731	0
89985	0	9	0.2	0.13	0	0.13	0.2	0	0.24	0	0.1	0	2	4	731	0
88887	0	16	0	0	0	0.3	0.32	0	0	0	0.38	0	2	2	732	0
82751	0	15	0.31	0.24	0	0	0	0.1	0.23	0.09	0.03	0	3	3	732	0
82401	0	6	0.4	0	0	0	0.1	0.1	0.1	0.1	0.1	0.1	3	3	732	0
82225	0	6	0.15	0	0	0	0	0.15	0.17	0	0.33	0.2	2	3	916	0
81777	0	33	0.35	0	0	0	0	0.1	0	0.45	0.1	0	4	1	917	0
81518	0	6	0	0	0	0	0.1	0	0.55	0	0	0.35	2	3	917	0
81262	0	12	0	0	0	0	0.1	0	0.55	0	0	0.35	2	4	917	0
79679	0	8	0.29	0	0	0	0.54	0	0	0	0	0.17	1	3	958	0
79477	0	11	0.35	0	0	0	0	0.1	0	0.45	0.1	0	2	3	958	0
78927	0	7	0	0	0	0	0.1	0	0.55	0	0	0.35	2	3	959	0
78472	0	14	0.55	0	0.1	0	0	0	0	0	0.13	0.22	2	4	959	0
77437	0	21	0.1	0.45	0	0.23	0.09	0.03	0	0	0	0.1	2	3	1047	0
75390	0	8	0.23	0.45	0.05	0	0	0	0.23	0.04	0	0	2	5	1047	0
75174	0	22	0.1	0.15	0.29	0.46	0	0	0	0	0	0	2	5	1047	0
74773	0	4	0	0	0.1	0	0	0.22	0.1	0	0.35	0.23	1	3	1048	0
74627	0	14	0.06	0	0.2	0.2	0.1	0.21	0	0	0	0.23	1	3	1048	0
74516	0	30	0.35	0	0	0	0	0.1	0	0.45	0.1	0	1	3	1048	0
73713	0	10	0.2	0.13	0	0.13	0.2	0	0.24	0	0.1	0	3	3	1048	0
73250	0	22	0	0.1	0	0	0.2	0	0.1	0.5	0	0.1	3	5	1048	0
72529	0	6	0.35	0	0	0	0	0.1	0	0.45	0.1	0	1	4	1049	0
72430	0	8	0	0	0.1	0	0	0.22	0.1	0	0.35	0.23	1	4	1049	0
71436	0	8	0.55	0	0.1	0	0	0	0	0	0.13	0.22	2	5	1049	0
71236	0	4	0	0.3	0	0.38	0.2	0	0	0	0	0.12	2	5	1049	0
69904	0	9	0.2	0	0.2	0.4	0	0.1	0	0.1	0	0	1	3	1106	0
67902	0	11	0.3	0.33	0	0.07	0	0.1	0	0.1	0	0.1	1	3	1148	0
65593	0	14	0.1	0.1	0.31	0	0.1	0	0	0.1	0.29	0	1	4	1148	0
65530	0	11	0.55	0	0.1	0	0	0	0	0	0.13	0.22	3	1	1202	0
65524	0	22	0.1	0	0.1	0.4	0	0	0	0.2	0	0.2	4	2	1202	0
65482	0	16	0.25	0	0	0.1	0.28	0	0	0.25	0	0.12	3	3	1202	0
64788	0	12	0	0	0	0	0.5	0.1	0	0	0.4	0	3	5	1202	0
64399	0	11	0	0.1	0	0	0.2	0	0.1	0.5	0	0.1	5	2	1203	0
63632	0	16	0.35	0	0	0	0	0.1	0	0.45	0.1	0	4	3	1203	0
63534	0	12	0.15	0	0	0	0	0.15	0.17	0	0.33	0.2	3	4	1203	0
63526	0	17	0.25	0.3	0.05	0.1	0	0.1	0.1	0.1	0	0	1	3	1204	0
63510	0	22	0.15	0	0	0	0	0.15	0.17	0	0.33	0.2	2	3	1204	0
62848	0	17	0.41	0.32	0	0	0	0.17	0	0	0.1	0	1	3	1207	0
62794	0	17	0	0.3	0	0.38	0.2	0	0	0	0	0.12	1	3	1207	0
62742	0	6	0	0	0.1	0	0	0.22	0.1	0	0.35	0.23	2	3	1207	0
61241	0	8	0	0.1	0	0	0.2	0	0.1	0.5	0	0.1	1	4	1207	0
61111	0	26	0	0.1	0	0	0.2	0	0.1	0.5	0	0.1	3	5	1207	0
60816	0	32	0.55	0	0.1	0	0	0	0	0	0.13	0.22	1	4	1246	0
60714	0	44	0.35	0	0	0	0	0.1	0	0.45	0.1	0	3	4	1246	0
60686	0	16	0.33	0.16	0	0	0	0	0	0	0.21	0.3	3	3	1566	0
60580	0	25	0	0.3	0	0.38	0.2	0	0	0	0	0.12	2	4	1566	0
59744	0	20	0.55	0	0.1	0	0	0	0	0	0.13	0.22	5	4	1566	0
59519	0	8	0	0.1	0	0	0.2	0	0.1	0.5	0	0.1	3	5	1566	0
59447	0	35	0.11	0	0	0.25	0.37	0	0	0	0.07	0.2	4	2	1567	0
59290	0	24	0	0	0.1	0	0.14	0.3	0.46	0	0	0	5	2	1567	0
59182	0	11	0.33	0.16	0	0	0	0	0	0	0.21	0.3	2	3	1567	0
59160	0	21	0.33	0	0.34	0	0.25	0	0	0.08	0	0	4	2	1697	0
58270	0	21	0.33	0.16	0	0	0	0	0	0	0.21	0.3	2	3	1698	0
58135	0	14	0	0	0	0.27	0	0.36	0.37	0	0	0	3	5	1698	0
58061	0	33	0.27	0	0	0	0.1	0	0.23	0.2	0	0.2	4	2	1699	0
57586	0	8	0.47	0.07	0	0	0.36	0.1	0	0	0	0	4	5	1699	0
57572	0	11	0	0.1	0	0.4	0.1	0	0.2	0	0	0.2	3	4	1700	0
56997	0	11	0.2	0	0	0.35	0	0	0.24	0	0	0.21	3	3	1735	0
56658	0	16	0.39	0.12	0	0	0	0	0	0.1	0.19	0.2	1	4	1735	0
55805	0	12	0.33	0	0.34	0	0.25	0	0	0.08	0	0	2	4	1735	0
55770	0	22	0.2	0.13	0	0.13	0.2	0	0.24	0	0.1	0	1	5	1735	0
55453	0	12	0.2	0	0	0.35	0	0	0.24	0	0	0.21	3	5	1735	0
55447	0	24	0.33	0	0.34	0	0.25	0	0	0.08	0	0	1	3	1736	0
55365	0	9	0.33	0	0.34	0	0.25	0	0	0.08	0	0	2	3	1736	0
55079	0	21	0.2	0.13	0	0.13	0.2	0	0.24	0	0.1	0	4	4	1736	0
55016	0	8	0	0	0.1	0	0	0.22	0.1	0	0.35	0.23	1	5	1736	0
54941	0	8	0	0	0.1	0	0	0.22	0.1	0	0.35	0.23	1	3	1811	0
54852	0	22	0	0.1	0	0.4	0.1	0	0.2	0	0	0.2	1	3	1812	0
54828	0	4	0.1	0.4	0	0	0	0	0.1	0	0.1	0.3	1	4	1812	0
54796	0	11	0.15	0	0	0	0	0.15	0.17	0	0.33	0.2	1	5	1812	0
54793	0	21	0.55	0	0.1	0	0	0	0	0	0.13	0.22	1	5	1812	0
54701	0	23	0.2	0	0.19	0	0	0.21	0.2	0	0	0.2	3	3	1851	0
54045	0	19	0.33	0	0.34	0	0.25	0	0	0.08	0	0	4	2	1852	0
53922	0	14	0.1	0	0	0	0	0.26	0	0.1	0.44	0.1	5	2	1852	0
52625	0	6	0	0.3	0	0.38	0.2	0	0	0	0	0.12	3	3	1852	0
52610	0	11	0	0.1	0	0	0.2	0	0.1	0.5	0	0.1	3	4	1852	0
52591	0	8	0	0.1	0.4	0.21	0.22	0	0	0	0	0.07	3	5	1852	0
52551	0	25	0	0.3	0	0.38	0.2	0	0	0	0	0.12	5	1	1853	0
52540	0	7	0.55	0	0.1	0	0	0	0	0	0.13	0.22	1	3	1853	0
50158	0	4	0.33	0	0.34	0	0.25	0	0	0.08	0	0	1	5	1853	0
49307	0	11	0.15	0	0	0	0	0.15	0.17	0	0.33	0.2	3	5	1853	0
48861	0	15	0	0	0	0	0.1	0	0.55	0	0	0.35	3	3	1930	0
48426	0	11	0	0	0	0	0.1	0	0.55	0	0	0.35	3	5	1930	0
48279	0	14	0	0.3	0	0.38	0.2	0	0	0	0	0.12	2	5	1961	0
48175	0	30	0	0.1	0	0	0.2	0	0.1	0.5	0	0.1	4	1	1963	0
48013	0	34	0.33	0.1	0	0.33	0	0	0.24	0	0	0	4	2	1963	0
46977	0	8	0.33	0	0.34	0	0.25	0	0	0.08	0	0	1	3	1963	0
46328	0	11	0	0.1	0	0.4	0.1	0	0.2	0	0	0.2	1	3	1963	0
46162	0	14	0.15	0	0	0	0	0.15	0.17	0	0.33	0.2	2	3	1963	0
45863	0	38	0	0	0	0	0.1	0	0.55	0	0	0.35	1	5	1963	0
45617	0	6	0	0.1	0	0	0.2	0	0.1	0.5	0	0.1	3	5	1963	0
45505	0	15	0.06	0	0.2	0.2	0.1	0.21	0	0	0	0.23	2	3	2023	0
44887	0	13	0	0.1	0	0	0.2	0	0.1	0.5	0	0.1	3	1	2024	0
44772	0	11	0.2	0	0.2	0.4	0	0.1	0	0.1	0	0	2	3	2024	0
42972	0	22	0.55	0	0.1	0	0	0	0	0	0.13	0.22	3	3	2024	0
40794	0	22	0.06	0	0.2	0.2	0.1	0.21	0	0	0	0.23	1	4	2025	0
40405	0	14	0.55	0	0.1	0	0	0	0	0	0.13	0.22	2	3	2026	0
34423	0	8	0	0	0.1	0.33	0	0	0.37	0	0	0.2	1	3	2027	0
34111	0	17	0.06	0	0.2	0.2	0.1	0.21	0	0	0	0.23	1	5	2027	0
33670	0	11	0.55	0	0.1	0	0	0	0	0	0.13	0.22	3	4	2028	0
33606	0	23	0.15	0	0	0	0	0.15	0.17	0	0.33	0.2	3	4	2028	0
32812	0	12	0.2	0.13	0	0.13	0.2	0	0.24	0	0.1	0	3	5	2028	0
32507	0	14	0.15	0	0	0	0	0.15	0.17	0	0.33	0.2	3	5	2028	0
32436	0	21	0	0.3	0	0.38	0.2	0	0	0	0	0.12	1	4	2049	0
32066	0	17	0.35	0	0	0	0	0.1	0	0.45	0.1	0	4	4	2049	0
31453	0	17	0	0.3	0	0.38	0.2	0	0	0	0	0.12	5	5	2112	0
30317	0	33	0.33	0.1	0	0.33	0	0	0.24	0	0	0	5	5	2112	0
30260	0	18	0	0.34	0	0.32	0	0	0.34	0	0	0	4	2	2176	0
29873	0	15	0.55	0	0.1	0	0	0	0	0	0.13	0.22	2	2	2177	0
29849	0	6	0.15	0	0	0	0	0.15	0.17	0	0.33	0.2	3	4	2177	0
29759	0	11	0	0.3	0	0.38	0.2	0	0	0	0	0.12	2	4	2278	0
29715	0	9	0.2	0	0	0.35	0	0	0.24	0	0	0.21	3	4	2278	0
29615	0	16	0	0	0.1	0	0	0.22	0.1	0	0.35	0.23	5	1	2279	0
29584	0	29	0.32	0.25	0	0	0.33	0	0	0	0.1	0	4	2	2279	0
29553	0	27	0	0.4	0	0	0.12	0	0	0	0.21	0.27	5	2	2279	0
29453	0	13	0.33	0	0.34	0	0.25	0	0	0.08	0	0	5	2	2279	0
28866	0	22	0	0	0	0	0.1	0	0.55	0	0	0.35	2	4	2279	0
28627	0	9	0	0	0	0	0	0	0.11	0.47	0.42	0	3	5	2279	0
28446	0	18	0	0	0	0	0.35	0	0	0.25	0.3	0.1	2	3	2280	0
28385	0	11	0.33	0.1	0	0.33	0	0	0.24	0	0	0	1	4	2280	0
28104	0	6	0	0	0	0	0.35	0	0	0.25	0.3	0.1	2	4	2280	0
28001	0	32	0.33	0	0.34	0	0.25	0	0	0.08	0	0	3	4	2280	0
27525	0	8	0.1	0.2	0.16	0	0.44	0	0.1	0	0	0	3	4	2280	0
27522	0	14	0.45	0.55	0	0	0	0	0	0	0	0	1	5	2280	0
27257	0	12	0.06	0	0.2	0.2	0.1	0.21	0	0	0	0.23	2	4	2302	0
26478	0	22	0.33	0.1	0	0.33	0	0	0.24	0	0	0	3	4	2302	0
26093	0	22	0.2	0.13	0	0.13	0.2	0	0.24	0	0.1	0	3	5	2302	0
26060	0	12	0	0.25	0	0.15	0.2	0.45	0	0.1	0	0	3	5	2303	0
26054	0	8	0	0	0	0	0.1	0	0.55	0	0	0.35	2	3	2316	0
25961	0	24	0.33	0.1	0	0.33	0	0	0.24	0	0	0	1	3	2478	0
25736	0	22	0.2	0	0.2	0.4	0	0.1	0	0.1	0	0	3	3	2478	0
25650	0	4	0.2	0	0.2	0.4	0	0.1	0	0.1	0	0	3	4	2478	0
25481	0	33	0	0.1	0	0.4	0.1	0	0.2	0	0	0.2	4	4	2478	0
25342	0	27	0	0.1	0	0	0.2	0	0.1	0.5	0	0.1	4	2	2481	0
25053	0	19	0.2	0	0	0.35	0	0	0.24	0	0	0.21	2	3	2481	0
24951	0	14	0.33	0.1	0	0.33	0	0	0.24	0	0	0	4	3	2481	0
24741	0	12	0	0	0	0	0.1	0	0.55	0	0	0.35	3	4	2481	0
24704	0	16	0	0.25	0	0.15	0.2	0.45	0	0.1	0	0	3	5	2481	0
24676	0	22	0.33	0.1	0	0.33	0	0	0.24	0	0	0	5	1	2482	0
24600	0	14	0	0.25	0	0.15	0.2	0.45	0	0.1	0	0	3	3	2482	0
24269	0	4	0.2	0.13	0	0.13	0.2	0	0.24	0	0.1	0	3	4	2482	0
24105	0	6	0.55	0	0.1	0	0	0	0	0	0.13	0.22	1	5	2482	0
24045	0	12	0.2	0	0	0.35	0	0	0.24	0	0	0.21	3	5	2482	0
24015	0	25	0.2	0	0.2	0.4	0	0.1	0	0.1	0	0	4	1	2544	0
23385	0	22	0.13	0.13	0.5	0.14	0	0.1	0	0	0	0	1	3	2544	0
23336	0	40	0.33	0.1	0	0.33	0	0	0.24	0	0	0	3	4	2544	0
23188	0	14	0	0.12	0	0.1	0	0.56	0	0	0	0.22	1	3	2602	0
23144	0	15	0.2	0	0.2	0.4	0	0.1	0	0.1	0	0	5	4	2602	0
22774	0	8	0	0.1	0	0	0.2	0	0.1	0.5	0	0.1	2	5	2602	0
22732	0	24	0.55	0	0.1	0	0	0	0	0	0.13	0.22	3	5	2602	0
22686	0	6	0	0.1	0	0	0.2	0	0.1	0.5	0	0.1	1	3	2674	0
22395	0	26	0	0.1	0	0	0.2	0	0.1	0.5	0	0.1	2	3	2674	0
22251	0	7	0.55	0	0.1	0	0	0	0	0	0.13	0.22	3	4	2674	0
22046	0	14	0.33	0	0.34	0	0.25	0	0	0.08	0	0	3	5	2674	0
21855	0	41	0	0.1	0	0.4	0.1	0	0.2	0	0	0.2	4	2	2677	0
21220	0	15	0.33	0.1	0	0.33	0	0	0.24	0	0	0	1	3	2677	0
21185	0	8	0	0.1	0	0.4	0.1	0	0.2	0	0	0.2	4	2	2678	0
21097	0	11	0.06	0	0.2	0.2	0.1	0.21	0	0	0	0.23	1	3	2719	0
21028	0	12	0	0	0	0	0.1	0	0.55	0	0	0.35	1	3	2719	0
20826	0	9	0	0.12	0	0.1	0	0.56	0	0	0	0.22	2	5	2719	0
20409	0	18	0	0	0	0	0.1	0	0.55	0	0	0.35	4	1	2720	0
20374	0	40	0	0	0	0	0.35	0	0	0.25	0.3	0.1	5	1	2720	0
20338	0	29	0.37	0	0.25	0.1	0	0	0.28	0	0	0	5	2	2720	0
20122	0	4	0.2	0	0	0.35	0	0	0.24	0	0	0.21	1	4	2720	0
19991	0	9	0	0	0	0.38	0.1	0.1	0.42	0	0	0	3	4	2720	0
19892	0	7	0.2	0	0.15	0.4	0	0	0	0	0.05	0.2	3	5	2720	0
19799	0	28	0.33	0.16	0	0	0	0	0	0	0.21	0.3	4	3	2721	0
19735	0	22	0	0.12	0	0.1	0	0.56	0	0	0	0.22	2	4	2721	0
19530	0	22	0.55	0	0.1	0	0	0	0	0	0.13	0.22	3	4	2721	0
19525	0	19	0	0.12	0	0.1	0	0.56	0	0	0	0.22	5	4	2721	0
19507	0	17	0	0.25	0	0.15	0.2	0.45	0	0.1	0	0	2	5	2721	0
19475	0	11	0	0.3	0	0.38	0.2	0	0	0	0	0.12	3	5	2721	0
19449	0	25	0	0.1	0	0.4	0.1	0	0.2	0	0	0.2	3	5	2721	0
19410	0	11	0	0	0.1	0	0	0.22	0.1	0	0.35	0.23	1	4	2722	0
19316	0	13	0	0	0	0.15	0.34	0	0.19	0.22	0.1	0	2	4	2722	0
19200	0	14	0	0	0	0	0.1	0	0.55	0	0	0.35	2	5	2722	0
19012	0	4	0	0.1	0	0.4	0.1	0	0.2	0	0	0.2	3	5	2722	0
19000	0	8	0.06	0	0.2	0.2	0.1	0.21	0	0	0	0.23	2	3	2757	0
18917	0	13	0.2	0	0.2	0.4	0	0.1	0	0.1	0	0	1	5	2812	0
18853	0	14	0	0	0	0	0.33	0.4	0	0	0.17	0.1	2	4	2937	0
18504	0	22	0.09	0	0.28	0	0.31	0.2	0.12	0	0	0	2	5	2937	0
18429	0	4	0.15	0	0	0	0	0.15	0.17	0	0.33	0.2	2	3	2999	0
17673	0	8	0.06	0	0.2	0.2	0.1	0.21	0	0	0	0.23	3	3	3000	0
17667	0	10	0	0.12	0	0.1	0	0.56	0	0	0	0.22	2	4	3000	0
17631	0	11	0	0	0	0.21	0.11	0	0.1	0.08	0	0.5	1	3	3001	0
17552	0	11	0	0.25	0	0.15	0.2	0.45	0	0.1	0	0	1	5	3002	0
17275	0	14	0.06	0	0.2	0.2	0.1	0.21	0	0	0	0.23	2	3	3003	0
17157	0	10	0.2	0	0	0.35	0	0	0.24	0	0	0.21	2	3	3077	0
16914	0	26	0	0.12	0	0.1	0	0.56	0	0	0	0.22	5	2	3142	0
16409	0	8	0	0.17	0	0	0.3	0	0	0	0.33	0.2	2	3	3147	0
16408	0	11	0	0.1	0.14	0	0	0.36	0.1	0.1	0.1	0.1	2	3	3147	0
16063	0	4	0.55	0	0.1	0	0	0	0	0	0.13	0.22	1	5	3314	0
15995	0	17	0.2	0	0	0.35	0	0	0.24	0	0	0.21	3	4	3401	0
15932	0	4	0.33	0	0.34	0	0.25	0	0	0.08	0	0	2	4	3449	0
15643	0	40	0.15	0	0	0	0	0.15	0.17	0	0.33	0.2	4	3	3483	0
15608	0	35	0	0.12	0	0.1	0	0.56	0	0	0	0.22	4	3	3570	0
15450	0	30	0.2	0	0	0.35	0	0	0.24	0	0	0.21	5	5	3576	0
15358	0	18	0.33	0.1	0	0.33	0	0	0.24	0	0	0	1	4	3577	0
15097	0	34	0	0	0	0	0.1	0	0.55	0	0	0.35	3	5	3608	0
15094	0	10	0.15	0	0	0	0	0.15	0.17	0	0.33	0.2	2	4	3723	0
14504	0	12	0.55	0	0.1	0	0	0	0	0	0.13	0.22	3	5	3723	0
14472	0	12	0	0	0.1	0	0	0.22	0.1	0	0.35	0.23	3	3	3730	0
14279	0	39	0.35	0	0	0	0	0.1	0	0.45	0.1	0	4	5	3730	0
14117	0	44	0	0	0	0	0.1	0	0.55	0	0	0.35	5	2	4291	0
13079	0	9	0.33	0.12	0	0	0.07	0	0	0.28	0	0.2	3	4	4291	0
12807	0	4	0.2	0	0.2	0.4	0	0.1	0	0.1	0	0	3	5	4297	0
12106	0	8	0.35	0	0	0	0	0.1	0	0.45	0.1	0	3	4	4472	0
12084	0	41	0.33	0	0.34	0	0.25	0	0	0.08	0	0	5	4	4596	0
11999	0	33	0.2	0.13	0	0.13	0.2	0	0.24	0	0.1	0	4	3	4599	0
11933	0	4	0.2	0.23	0	0	0.19	0	0.28	0	0.1	0	3	5	4599	0
11667	0	13	0	0	0.1	0	0	0.22	0.1	0	0.35	0.23	3	5	4600	0
11512	0	9	0	0	0	0	0.35	0	0	0.25	0.3	0.1	2	3	4601	0
11432	0	11	0.1	0	0.1	0.05	0	0.35	0	0	0	0.4	2	5	4602	0
11356	0	16	0.5	0.5	0	0	0	0	0	0	0	0	3	3	4603	0
11050	0	8	0	0.06	0	0	0	0	0.43	0	0.18	0.33	3	3	4604	0
11027	0	11	0.15	0.15	0	0	0.3	0	0	0.3	0	0.1	3	5	4604	0
5279	0	5	0	0.25	0	0.15	0.2	0.45	0	0.1	0	0	2	4	4798	0
4139	0	35	0.35	0	0	0	0	0.1	0	0.45	0.1	0	4	4	4904	0
3512	0	5	0	0.12	0	0.1	0	0.56	0	0	0	0.22	2	3	5753	0